test/logs/TOP_server_MODE_full_MEM_DEPTH_1024_READ_LAT_24_RANK_BITS_1.log
VCD info: dumpfile tb_ddr2_server_controller.iverilog.vcd opened for output.
[23000] (server) INITDDR asserted, waiting for READY...
[665000] Detected AUTO REFRESH command on DDR2 bus (server top).
[867000] Detected AUTO REFRESH command on DDR2 bus (server top).
[1899000] (server) READY asserted at cycle 938
[1901000] (server) NOTFULL=1 (FIFOs can accept commands)
[1905000] CTRL: ENQUEUE CMD addr=0 cmd=10 sz=0
[1905000] CTRL: ENQUEUE CMD addr=0 cmd=10 sz=0
[1905000] CTRL: ENQUEUE CMD addr=0 cmd=10 sz=0
[1905000] CTRL: ENQUEUE CMD addr=0 cmd=10 sz=0
[1905000] SCW issued (server): addr=0 data16=0xa5a5
[1907000] PROT: IDLE sees cmdFIFO non-empty (need_refresh=0)
[1907000] PROT: IDLE sees cmdFIFO non-empty (need_refresh=0)
[1907000] PROT: IDLE sees cmdFIFO non-empty (need_refresh=0)
[1907000] PROT: IDLE sees cmdFIFO non-empty (need_refresh=0)
[1909000] PROT: GETCMD state cnt=2
[1909000] PROT: GETCMD state cnt=2
[1909000] PROT: GETCMD state cnt=2
[1909000] PROT: GETCMD state cnt=2
[1911000] PROT: GETCMD state cnt=1
[1911000] PROT: GETCMD state cnt=1
[1911000] PROT: GETCMD state cnt=1
[1911000] PROT: GETCMD state cnt=1
[1913000] PROT: GETCMD state cnt=0
[1913000] PROT: GETCMD addr=0 cmd=10 sz=0 rank_sel=0
[1913000] PROT: GETCMD state cnt=0
[1913000] PROT: GETCMD addr=0 cmd=10 sz=0 rank_sel=0
[1913000] PROT: GETCMD state cnt=0
[1913000] PROT: GETCMD addr=0 cmd=10 sz=0 rank_sel=0
[1913000] PROT: GETCMD state cnt=0
[1913000] PROT: GETCMD addr=0 cmd=10 sz=0 rank_sel=0
[1929000] DQS_MON: WRITE detected, starting DQS observation window.
[1929000] MEM: WRITE cmd received rank=0 bank=0 row=0 col=1
[1945000] MEM: WRITE burst committed base_idx=1 data=0x0000
[1995000] DQS_MON: window complete, edge_cnt=7.
[2329000] CTRL: ENQUEUE CMD addr=0 cmd=1 sz=0
[2329000] CTRL: ENQUEUE CMD addr=0 cmd=1 sz=0
[2329000] CTRL: ENQUEUE CMD addr=0 cmd=1 sz=0
[2329000] CTRL: ENQUEUE CMD addr=0 cmd=1 sz=0
[2329000] SCR issued: addr=0
[2331000] PROT: IDLE sees cmdFIFO non-empty (need_refresh=0)
[2331000] PROT: IDLE sees cmdFIFO non-empty (need_refresh=0)
[2331000] PROT: IDLE sees cmdFIFO non-empty (need_refresh=0)
[2331000] PROT: IDLE sees cmdFIFO non-empty (need_refresh=0)
[2333000] PROT: GETCMD state cnt=2
[2333000] PROT: GETCMD state cnt=2
[2333000] PROT: GETCMD state cnt=2
[2333000] PROT: GETCMD state cnt=2
[2335000] PROT: GETCMD state cnt=1
[2335000] PROT: GETCMD state cnt=1
[2335000] PROT: GETCMD state cnt=1
[2335000] PROT: GETCMD state cnt=1
[2337000] PROT: GETCMD state cnt=0
[2337000] PROT: GETCMD addr=0 cmd=1 sz=0 rank_sel=0
[2337000] PROT: GETCMD state cnt=0
[2337000] PROT: GETCMD addr=0 cmd=1 sz=0 rank_sel=0
[2337000] PROT: GETCMD state cnt=0
[2337000] PROT: GETCMD addr=0 cmd=1 sz=0 rank_sel=0
[2337000] PROT: GETCMD state cnt=0
[2337000] PROT: GETCMD addr=0 cmd=1 sz=0 rank_sel=0
[2351000] PROT: ISSUE_READ bank=0 row=0 col=0 cs=1 ras=1 cas=1 we=1
[2351000] PROT: ISSUE_READ bank=0 row=0 col=0 cs=1 ras=1 cas=1 we=1
[2351000] PROT: ISSUE_READ bank=0 row=0 col=0 cs=1 ras=1 cas=1 we=1
[2351000] PROT: ISSUE_READ bank=0 row=0 col=0 cs=1 ras=1 cas=1 we=1
[2353000] MEM: READ decode rank=0 bank=0 row=0 col=1
[2353000] MEM: READ cmd received rank=0 bank=0 row=0 col=1
[2401000] MEM: READ beat=1 rank=0 idx=2 data=0x0000
[2403000] MEM: READ beat=2 rank=0 idx=3 data=0x0000
[2405000] READ observed (server top): RADDR=0 DOUT=0xzzzzzzzzzzzz0000
[2405000] MEM: READ beat=3 rank=0 idx=4 data=0x0000
[2407000] READ observed (server top): RADDR=1 DOUT=0xzzzzzzzzzzzz0000
[2407000] MEM: READ beat=4 rank=0 idx=5 data=0x0000
[2409000] READ observed (server top): RADDR=2 DOUT=0xzzzzzzzzzzzz0000
[2409000] MEM: READ beat=5 rank=0 idx=6 data=0x0000
[2411000] MEM: READ beat=6 rank=0 idx=7 data=0x0000
[2413000] MEM: READ beat=7 rank=0 idx=8 data=0x0000
[2511000] CTRL: ENQUEUE CMD addr=1 cmd=10 sz=0
[2511000] CTRL: ENQUEUE CMD addr=1 cmd=10 sz=0
[2511000] CTRL: ENQUEUE CMD addr=1 cmd=10 sz=0
[2511000] CTRL: ENQUEUE CMD addr=1 cmd=10 sz=0
[2511000] SCW issued (server): addr=1 data16=0xa4a5
[2513000] PROT: IDLE sees cmdFIFO non-empty (need_refresh=0)
[2513000] PROT: IDLE sees cmdFIFO non-empty (need_refresh=0)
[2513000] PROT: IDLE sees cmdFIFO non-empty (need_refresh=0)
[2513000] PROT: IDLE sees cmdFIFO non-empty (need_refresh=0)
[2515000] PROT: GETCMD state cnt=2
[2515000] PROT: GETCMD state cnt=2
[2515000] PROT: GETCMD state cnt=2
[2515000] PROT: GETCMD state cnt=2
[2517000] PROT: GETCMD state cnt=1
[2517000] PROT: GETCMD state cnt=1
[2517000] PROT: GETCMD state cnt=1
[2517000] PROT: GETCMD state cnt=1
[2519000] PROT: GETCMD state cnt=0
[2519000] PROT: GETCMD addr=1 cmd=10 sz=0 rank_sel=0
[2519000] PROT: GETCMD state cnt=0
[2519000] PROT: GETCMD addr=1 cmd=10 sz=0 rank_sel=0
[2519000] PROT: GETCMD state cnt=0
[2519000] PROT: GETCMD addr=1 cmd=10 sz=0 rank_sel=0
[2519000] PROT: GETCMD state cnt=0
[2519000] PROT: GETCMD addr=1 cmd=10 sz=0 rank_sel=0
[2535000] DQS_MON: WRITE detected, starting DQS observation window.
[2535000] MEM: WRITE cmd received rank=0 bank=0 row=0 col=3
[2551000] MEM: WRITE burst committed base_idx=3 data=0x0000
[2601000] DQS_MON: window complete, edge_cnt=7.
[2935000] CTRL: ENQUEUE CMD addr=1 cmd=1 sz=0
[2935000] CTRL: ENQUEUE CMD addr=1 cmd=1 sz=0
[2935000] CTRL: ENQUEUE CMD addr=1 cmd=1 sz=0
[2935000] CTRL: ENQUEUE CMD addr=1 cmd=1 sz=0
[2935000] SCR issued: addr=1
[2937000] PROT: IDLE sees cmdFIFO non-empty (need_refresh=0)
[2937000] PROT: IDLE sees cmdFIFO non-empty (need_refresh=0)
[2937000] PROT: IDLE sees cmdFIFO non-empty (need_refresh=0)
[2937000] PROT: IDLE sees cmdFIFO non-empty (need_refresh=0)
[2939000] PROT: GETCMD state cnt=2
[2939000] PROT: GETCMD state cnt=2
[2939000] PROT: GETCMD state cnt=2
[2939000] PROT: GETCMD state cnt=2
[2941000] READ observed (server top): RADDR=4 DOUT=0xzzzzzzzzzzzz0000
[2941000] PROT: GETCMD state cnt=1
[2941000] PROT: GETCMD state cnt=1
[2941000] PROT: GETCMD state cnt=1
[2941000] PROT: GETCMD state cnt=1
[2943000] PROT: GETCMD state cnt=0
[2943000] PROT: GETCMD addr=1 cmd=1 sz=0 rank_sel=0
[2943000] PROT: GETCMD state cnt=0
[2943000] PROT: GETCMD addr=1 cmd=1 sz=0 rank_sel=0
[2943000] PROT: GETCMD state cnt=0
[2943000] PROT: GETCMD addr=1 cmd=1 sz=0 rank_sel=0
[2943000] PROT: GETCMD state cnt=0
[2943000] PROT: GETCMD addr=1 cmd=1 sz=0 rank_sel=0
[2943000] READ observed (server top): RADDR=5 DOUT=0xzzzzzzzzzzzz0000
[2945000] READ observed (server top): RADDR=6 DOUT=0xzzzzzzzzzzzz0000
[2947000] READ observed (server top): RADDR=6 DOUT=0xzzzzzzzzzzzz0000
[2957000] PROT: ISSUE_READ bank=0 row=0 col=1 cs=1 ras=1 cas=1 we=1
[2957000] PROT: ISSUE_READ bank=0 row=0 col=1 cs=1 ras=1 cas=1 we=1
[2957000] PROT: ISSUE_READ bank=0 row=0 col=1 cs=1 ras=1 cas=1 we=1
[2957000] PROT: ISSUE_READ bank=0 row=0 col=1 cs=1 ras=1 cas=1 we=1
[2959000] MEM: READ decode rank=0 bank=0 row=0 col=3
[2959000] MEM: READ cmd received rank=0 bank=0 row=0 col=3
[3007000] MEM: READ beat=1 rank=0 idx=4 data=0x0000
[3009000] MEM: READ beat=2 rank=0 idx=5 data=0x0000
[3011000] MEM: READ beat=3 rank=0 idx=6 data=0x0000
[3013000] MEM: READ beat=4 rank=0 idx=7 data=0x0000
[3015000] MEM: READ beat=5 rank=0 idx=8 data=0x0000
[3017000] MEM: READ beat=6 rank=0 idx=9 data=0x0000
[3019000] MEM: READ beat=7 rank=0 idx=10 data=0x0000
[3047000] CTRL: ENQUEUE CMD addr=128 cmd=10 sz=0
[3047000] CTRL: ENQUEUE CMD addr=128 cmd=10 sz=0
[3047000] CTRL: ENQUEUE CMD addr=128 cmd=10 sz=0
[3047000] CTRL: ENQUEUE CMD addr=128 cmd=10 sz=0
[3047000] SCW issued (server): addr=128 data16=0x25a5
[3049000] PROT: IDLE sees cmdFIFO non-empty (need_refresh=0)
[3049000] PROT: IDLE sees cmdFIFO non-empty (need_refresh=0)
[3049000] PROT: IDLE sees cmdFIFO non-empty (need_refresh=0)
[3049000] PROT: IDLE sees cmdFIFO non-empty (need_refresh=0)
[3051000] PROT: GETCMD state cnt=2
[3051000] PROT: GETCMD state cnt=2
[3051000] PROT: GETCMD state cnt=2
[3051000] PROT: GETCMD state cnt=2
[3053000] PROT: GETCMD state cnt=1
[3053000] PROT: GETCMD state cnt=1
[3053000] PROT: GETCMD state cnt=1
[3053000] PROT: GETCMD state cnt=1
[3055000] PROT: GETCMD state cnt=0
[3055000] PROT: GETCMD addr=128 cmd=10 sz=0 rank_sel=0
[3055000] PROT: GETCMD state cnt=0
[3055000] PROT: GETCMD addr=128 cmd=10 sz=0 rank_sel=0
[3055000] PROT: GETCMD state cnt=0
[3055000] PROT: GETCMD addr=128 cmd=10 sz=0 rank_sel=0
[3055000] PROT: GETCMD state cnt=0
[3055000] PROT: GETCMD addr=128 cmd=10 sz=0 rank_sel=0
[3071000] DQS_MON: WRITE detected, starting DQS observation window.
[3071000] MEM: WRITE cmd received rank=0 bank=0 row=0 col=65
[3087000] MEM: WRITE burst committed base_idx=1 data=0x0000
[3137000] DQS_MON: window complete, edge_cnt=7.
[3471000] CTRL: ENQUEUE CMD addr=128 cmd=1 sz=0
[3471000] CTRL: ENQUEUE CMD addr=128 cmd=1 sz=0
[3471000] CTRL: ENQUEUE CMD addr=128 cmd=1 sz=0
[3471000] CTRL: ENQUEUE CMD addr=128 cmd=1 sz=0
[3471000] SCR issued: addr=128
[3473000] PROT: IDLE sees cmdFIFO non-empty (need_refresh=0)
[3473000] PROT: IDLE sees cmdFIFO non-empty (need_refresh=0)
[3473000] PROT: IDLE sees cmdFIFO non-empty (need_refresh=0)
[3473000] PROT: IDLE sees cmdFIFO non-empty (need_refresh=0)
[3475000] PROT: GETCMD state cnt=2
[3475000] PROT: GETCMD state cnt=2
[3475000] PROT: GETCMD state cnt=2
[3475000] PROT: GETCMD state cnt=2
[3477000] READ observed (server top): RADDR=1 DOUT=0xzzzzzzzzzzzzzzzz
[3477000] PROT: GETCMD state cnt=1
[3477000] PROT: GETCMD state cnt=1
[3477000] PROT: GETCMD state cnt=1
[3477000] PROT: GETCMD state cnt=1
[3479000] PROT: GETCMD state cnt=0
[3479000] PROT: GETCMD addr=128 cmd=1 sz=0 rank_sel=0
[3479000] PROT: GETCMD state cnt=0
[3479000] PROT: GETCMD addr=128 cmd=1 sz=0 rank_sel=0
[3479000] PROT: GETCMD state cnt=0
[3479000] PROT: GETCMD addr=128 cmd=1 sz=0 rank_sel=0
[3479000] PROT: GETCMD state cnt=0
[3479000] PROT: GETCMD addr=128 cmd=1 sz=0 rank_sel=0
[3479000] READ observed (server top): RADDR=1 DOUT=0xzzzzzzzzzzzz0000
[3481000] READ observed (server top): RADDR=2 DOUT=0xzzzzzzzzzzzz0000
[3483000] READ observed (server top): RADDR=2 DOUT=0xzzzzzzzzzzzz0000
[3493000] PROT: ISSUE_READ bank=0 row=0 col=32 cs=1 ras=1 cas=1 we=1
[3493000] PROT: ISSUE_READ bank=0 row=0 col=32 cs=1 ras=1 cas=1 we=1
[3493000] PROT: ISSUE_READ bank=0 row=0 col=32 cs=1 ras=1 cas=1 we=1
[3493000] PROT: ISSUE_READ bank=0 row=0 col=32 cs=1 ras=1 cas=1 we=1
[3495000] MEM: READ decode rank=0 bank=0 row=0 col=65
[3495000] MEM: READ cmd received rank=0 bank=0 row=0 col=65
[3543000] MEM: READ beat=1 rank=0 idx=2 data=0x0000
[3545000] MEM: READ beat=2 rank=0 idx=3 data=0x0000
[3547000] MEM: READ beat=3 rank=0 idx=4 data=0x0000
[3549000] MEM: READ beat=4 rank=0 idx=5 data=0x0000
[3551000] MEM: READ beat=5 rank=0 idx=6 data=0x0000
[3553000] MEM: READ beat=6 rank=0 idx=7 data=0x0000
[3555000] MEM: READ beat=7 rank=0 idx=8 data=0x0000
[3583000] CTRL: ENQUEUE CMD addr=512 cmd=10 sz=0
[3583000] CTRL: ENQUEUE CMD addr=512 cmd=10 sz=0
[3583000] CTRL: ENQUEUE CMD addr=512 cmd=10 sz=0
[3583000] CTRL: ENQUEUE CMD addr=512 cmd=10 sz=0
[3583000] SCW issued (server): addr=512 data16=0xa5a7
[3585000] PROT: IDLE sees cmdFIFO non-empty (need_refresh=0)
[3585000] PROT: IDLE sees cmdFIFO non-empty (need_refresh=0)
[3585000] PROT: IDLE sees cmdFIFO non-empty (need_refresh=0)
[3585000] PROT: IDLE sees cmdFIFO non-empty (need_refresh=0)
[3587000] PROT: GETCMD state cnt=2
[3587000] PROT: GETCMD state cnt=2
[3587000] PROT: GETCMD state cnt=2
[3587000] PROT: GETCMD state cnt=2
[3589000] PROT: GETCMD state cnt=1
[3589000] PROT: GETCMD state cnt=1
[3589000] PROT: GETCMD state cnt=1
[3589000] PROT: GETCMD state cnt=1
[3591000] PROT: GETCMD state cnt=0
[3591000] PROT: GETCMD addr=512 cmd=10 sz=0 rank_sel=0
[3591000] PROT: GETCMD state cnt=0
[3591000] PROT: GETCMD addr=512 cmd=10 sz=0 rank_sel=0
[3591000] PROT: GETCMD state cnt=0
[3591000] PROT: GETCMD addr=512 cmd=10 sz=0 rank_sel=0
[3591000] PROT: GETCMD state cnt=0
[3591000] PROT: GETCMD addr=512 cmd=10 sz=0 rank_sel=0
[3607000] DQS_MON: WRITE detected, starting DQS observation window.
[3607000] MEM: WRITE cmd received rank=0 bank=0 row=0 col=257
[3623000] MEM: WRITE burst committed base_idx=1 data=0x0000
[3673000] DQS_MON: window complete, edge_cnt=7.
[4007000] CTRL: ENQUEUE CMD addr=512 cmd=1 sz=0
[4007000] CTRL: ENQUEUE CMD addr=512 cmd=1 sz=0
[4007000] CTRL: ENQUEUE CMD addr=512 cmd=1 sz=0
[4007000] CTRL: ENQUEUE CMD addr=512 cmd=1 sz=0
[4007000] SCR issued: addr=512
[4009000] PROT: IDLE sees cmdFIFO non-empty (need_refresh=0)
[4009000] PROT: IDLE sees cmdFIFO non-empty (need_refresh=0)
[4009000] PROT: IDLE sees cmdFIFO non-empty (need_refresh=0)
[4009000] PROT: IDLE sees cmdFIFO non-empty (need_refresh=0)
[4011000] PROT: GETCMD state cnt=2
[4011000] PROT: GETCMD state cnt=2
[4011000] PROT: GETCMD state cnt=2
[4011000] PROT: GETCMD state cnt=2
[4013000] READ observed (server top): RADDR=4 DOUT=0xzzzzzzzzzzzz0000
[4013000] PROT: GETCMD state cnt=1
[4013000] PROT: GETCMD state cnt=1
[4013000] PROT: GETCMD state cnt=1
[4013000] PROT: GETCMD state cnt=1
[4015000] PROT: GETCMD state cnt=0
[4015000] PROT: GETCMD addr=512 cmd=1 sz=0 rank_sel=0
[4015000] PROT: GETCMD state cnt=0
[4015000] PROT: GETCMD addr=512 cmd=1 sz=0 rank_sel=0
[4015000] PROT: GETCMD state cnt=0
[4015000] PROT: GETCMD addr=512 cmd=1 sz=0 rank_sel=0
[4015000] PROT: GETCMD state cnt=0
[4015000] PROT: GETCMD addr=512 cmd=1 sz=0 rank_sel=0
[4015000] READ observed (server top): RADDR=5 DOUT=0xzzzzzzzzzzzz0000
[4017000] READ observed (server top): RADDR=6 DOUT=0xzzzzzzzzzzzz0000
[4019000] READ observed (server top): RADDR=6 DOUT=0xzzzzzzzzzzzz0000
[4029000] PROT: ISSUE_READ bank=0 row=0 col=128 cs=1 ras=1 cas=1 we=1
[4029000] PROT: ISSUE_READ bank=0 row=0 col=128 cs=1 ras=1 cas=1 we=1
[4029000] PROT: ISSUE_READ bank=0 row=0 col=128 cs=1 ras=1 cas=1 we=1
[4029000] PROT: ISSUE_READ bank=0 row=0 col=128 cs=1 ras=1 cas=1 we=1
[4031000] MEM: READ decode rank=0 bank=0 row=0 col=257
[4031000] MEM: READ cmd received rank=0 bank=0 row=0 col=257
[4079000] MEM: READ beat=1 rank=0 idx=2 data=0x0000
[4081000] MEM: READ beat=2 rank=0 idx=3 data=0x0000
[4083000] MEM: READ beat=3 rank=0 idx=4 data=0x0000
[4085000] MEM: READ beat=4 rank=0 idx=5 data=0x0000
[4087000] MEM: READ beat=5 rank=0 idx=6 data=0x0000
[4089000] MEM: READ beat=6 rank=0 idx=7 data=0x0000
[4091000] MEM: READ beat=7 rank=0 idx=8 data=0x0000
[4119000] CTRL: ENQUEUE CMD addr=32 cmd=100 sz=0
[4119000] CTRL: ENQUEUE CMD addr=32 cmd=100 sz=0
[4119000] CTRL: ENQUEUE CMD addr=32 cmd=100 sz=0
[4119000] CTRL: ENQUEUE CMD addr=32 cmd=100 sz=0
[4119000] BLW issued: base_addr=32 SZ=0 (nwords=8)
[4121000] PROT: IDLE sees cmdFIFO non-empty (need_refresh=0)
[4121000] PROT: IDLE sees cmdFIFO non-empty (need_refresh=0)
[4121000] PROT: IDLE sees cmdFIFO non-empty (need_refresh=0)
[4121000] PROT: IDLE sees cmdFIFO non-empty (need_refresh=0)
[4123000] PROT: GETCMD state cnt=2
[4123000] PROT: GETCMD state cnt=2
[4123000] PROT: GETCMD state cnt=2
[4123000] PROT: GETCMD state cnt=2
[4125000] PROT: GETCMD state cnt=1
[4125000] PROT: GETCMD state cnt=1
[4125000] PROT: GETCMD state cnt=1
[4125000] PROT: GETCMD state cnt=1
[4127000] PROT: GETCMD state cnt=0
[4127000] PROT: GETCMD addr=32 cmd=100 sz=0 rank_sel=0
[4127000] PROT: GETCMD state cnt=0
[4127000] PROT: GETCMD addr=32 cmd=100 sz=0 rank_sel=0
[4127000] PROT: GETCMD state cnt=0
[4127000] PROT: GETCMD addr=32 cmd=100 sz=0 rank_sel=0
[4127000] PROT: GETCMD state cnt=0
[4127000] PROT: GETCMD addr=32 cmd=100 sz=0 rank_sel=0
[4157000] DQS_MON: WRITE detected, starting DQS observation window.
[4157000] MEM: WRITE cmd received rank=0 bank=0 row=0 col=17
[4173000] MEM: WRITE burst committed base_idx=17 data=0x0000
[4223000] DQS_MON: window complete, edge_cnt=7.
[5375000] CTRL: ENQUEUE CMD addr=32 cmd=11 sz=0
[5375000] CTRL: ENQUEUE CMD addr=32 cmd=11 sz=0
[5375000] CTRL: ENQUEUE CMD addr=32 cmd=11 sz=0
[5375000] CTRL: ENQUEUE CMD addr=32 cmd=11 sz=0
[5375000] BLR issued: base_addr=32 SZ=0 (expect 8 beats)
[5377000] PROT: IDLE sees cmdFIFO non-empty (need_refresh=0)
[5377000] PROT: IDLE sees cmdFIFO non-empty (need_refresh=0)
[5377000] PROT: IDLE sees cmdFIFO non-empty (need_refresh=0)
[5377000] PROT: IDLE sees cmdFIFO non-empty (need_refresh=0)
[5379000] PROT: GETCMD state cnt=2
[5379000] PROT: GETCMD state cnt=2
[5379000] PROT: GETCMD state cnt=2
[5379000] PROT: GETCMD state cnt=2
[5381000] BLR beat (bus mode) observed: RADDR=8 DOUT=0xzzzzzzzzzzzzzzzz
[5381000] READ observed (server top): RADDR=8 DOUT=0xzzzzzzzzzzzzzzzz
[5381000] PROT: GETCMD state cnt=1
[5381000] PROT: GETCMD state cnt=1
[5381000] PROT: GETCMD state cnt=1
[5381000] PROT: GETCMD state cnt=1
[5383000] PROT: GETCMD state cnt=0
[5383000] PROT: GETCMD addr=32 cmd=11 sz=0 rank_sel=0
[5383000] PROT: GETCMD state cnt=0
[5383000] PROT: GETCMD addr=32 cmd=11 sz=0 rank_sel=0
[5383000] PROT: GETCMD state cnt=0
[5383000] PROT: GETCMD addr=32 cmd=11 sz=0 rank_sel=0
[5383000] PROT: GETCMD state cnt=0
[5383000] PROT: GETCMD addr=32 cmd=11 sz=0 rank_sel=0
[5383000] READ observed (server top): RADDR=128 DOUT=0xzzzzzzzzzzzzzzzz
[5383000] BLR beat (bus mode) observed: RADDR=128 DOUT=0xzzzzzzzzzzzzzzzz
[5385000] BLR beat (bus mode) observed: RADDR=128 DOUT=0xzzzzzzzzzzzz0000
[5385000] READ observed (server top): RADDR=128 DOUT=0xzzzzzzzzzzzz0000
[5387000] READ observed (server top): RADDR=129 DOUT=0xzzzzzzzzzzzz0000
[5387000] BLR beat (bus mode) observed: RADDR=129 DOUT=0xzzzzzzzzzzzz0000
[5389000] BLR beat (bus mode) observed: RADDR=130 DOUT=0xzzzzzzzzzzzz0000
[5389000] READ observed (server top): RADDR=130 DOUT=0xzzzzzzzzzzzz0000
[5391000] READ observed (server top): RADDR=131 DOUT=0xzzzzzzzzzzzz0000
[5391000] BLR beat (bus mode) observed: RADDR=131 DOUT=0xzzzzzzzzzzzz0000
[5393000] BLR beat (bus mode) observed: RADDR=132 DOUT=0xzzzzzzzzzzzz0000
[5393000] READ observed (server top): RADDR=132 DOUT=0xzzzzzzzzzzzz0000
[5395000] READ observed (server top): RADDR=133 DOUT=0xzzzzzzzzzzzz0000
[5395000] BLR beat (bus mode) observed: RADDR=133 DOUT=0xzzzzzzzzzzzz0000
[5397000] BLR beat (bus mode) observed: RADDR=134 DOUT=0xzzzzzzzzzzzz0000
[5397000] READ observed (server top): RADDR=134 DOUT=0xzzzzzzzzzzzz0000
[5399000] READ observed (server top): RADDR=135 DOUT=0xzzzzzzzzzzzzzzzz
[5399000] BLR beat (bus mode) observed: RADDR=135 DOUT=0xzzzzzzzzzzzzzzzz
[5401000] BLR beat (bus mode) observed: RADDR=512 DOUT=0xzzzzzzzzzzzzzzzz
[5401000] READ observed (server top): RADDR=512 DOUT=0xzzzzzzzzzzzzzzzz
[5403000] READ observed (server top): RADDR=512 DOUT=0xzzzzzzzzzzzz0000
[5403000] BLR beat (bus mode) observed: RADDR=512 DOUT=0xzzzzzzzzzzzz0000
[5405000] BLR beat (bus mode) observed: RADDR=513 DOUT=0xzzzzzzzzzzzz0000
[5405000] READ observed (server top): RADDR=513 DOUT=0xzzzzzzzzzzzz0000
[5407000] READ observed (server top): RADDR=514 DOUT=0xzzzzzzzzzzzz0000
[5407000] BLR beat (bus mode) observed: RADDR=514 DOUT=0xzzzzzzzzzzzz0000
[5409000] BLR beat (bus mode) observed: RADDR=515 DOUT=0xzzzzzzzzzzzz0000
[5409000] READ observed (server top): RADDR=515 DOUT=0xzzzzzzzzzzzz0000
[5411000] READ observed (server top): RADDR=516 DOUT=0xzzzzzzzzzzzz0000
[5411000] BLR beat (bus mode) observed: RADDR=516 DOUT=0xzzzzzzzzzzzz0000
[5413000] BLR beat (bus mode) observed: RADDR=517 DOUT=0xzzzzzzzzzzzz0000
[5413000] READ observed (server top): RADDR=517 DOUT=0xzzzzzzzzzzzz0000
[5413000] MEM: READ decode rank=0 bank=0 row=0 col=17
[5413000] MEM: READ cmd received rank=0 bank=0 row=0 col=17
[5415000] READ observed (server top): RADDR=518 DOUT=0xzzzzzzzzzzzz0000
[5415000] BLR beat (bus mode) observed: RADDR=518 DOUT=0xzzzzzzzzzzzz0000
[5417000] BLR beat (bus mode) observed: RADDR=519 DOUT=0xzzzzzzzzzzzzzzzz
[5417000] READ observed (server top): RADDR=519 DOUT=0xzzzzzzzzzzzzzzzz
[5419000] READ observed (server top): RADDR=519 DOUT=0xzzzzzzzzzzzzzzzz
[5419000] BLR beat (bus mode) observed: RADDR=519 DOUT=0xzzzzzzzzzzzzzzzz
[5461000] MEM: READ beat=1 rank=0 idx=18 data=0x0000
[5463000] MEM: READ beat=2 rank=0 idx=19 data=0x0000
[5465000] MEM: READ beat=3 rank=0 idx=20 data=0x0000
[5467000] MEM: READ beat=4 rank=0 idx=21 data=0x0000
[5469000] MEM: READ beat=5 rank=0 idx=22 data=0x0000
[5471000] MEM: READ beat=6 rank=0 idx=23 data=0x0000
[5473000] MEM: READ beat=7 rank=0 idx=24 data=0x0000
[6525000] REF_MON: First AUTO REFRESH observed.
[11151000] REF_MON: AUTO REFRESH interval = 2313 cycles.
[15777000] REF_MON: AUTO REFRESH interval = 2313 cycles.
[20403000] REF_MON: AUTO REFRESH interval = 2313 cycles.
[25029000] REF_MON: AUTO REFRESH interval = 2313 cycles.
[29655000] REF_MON: AUTO REFRESH interval = 2313 cycles.
[34281000] REF_MON: AUTO REFRESH interval = 2313 cycles.
[38907000] REF_MON: AUTO REFRESH interval = 2313 cycles.
[43533000] REF_MON: AUTO REFRESH interval = 2313 cycles.
[45421000] BLW/BLR sequence OK: base_addr=32 SZ=0 (nwords=8)
[45625000] CTRL: ENQUEUE CMD addr=256 cmd=100 sz=1
[45625000] CTRL: ENQUEUE CMD addr=256 cmd=100 sz=1
[45625000] CTRL: ENQUEUE CMD addr=256 cmd=100 sz=1
[45625000] CTRL: ENQUEUE CMD addr=256 cmd=100 sz=1
[45625000] BLW issued: base_addr=256 SZ=1 (nwords=16)
[45627000] PROT: IDLE sees cmdFIFO non-empty (need_refresh=0)
[45627000] PROT: IDLE sees cmdFIFO non-empty (need_refresh=0)
[45627000] PROT: IDLE sees cmdFIFO non-empty (need_refresh=0)
[45627000] PROT: IDLE sees cmdFIFO non-empty (need_refresh=0)
[45629000] PROT: GETCMD state cnt=2
[45629000] PROT: GETCMD state cnt=2
[45629000] PROT: GETCMD state cnt=2
[45629000] PROT: GETCMD state cnt=2
[45631000] PROT: GETCMD state cnt=1
[45631000] PROT: GETCMD state cnt=1
[45631000] PROT: GETCMD state cnt=1
[45631000] PROT: GETCMD state cnt=1
[45633000] PROT: GETCMD state cnt=0
[45633000] PROT: GETCMD addr=256 cmd=100 sz=1 rank_sel=0
[45633000] PROT: GETCMD state cnt=0
[45633000] PROT: GETCMD addr=256 cmd=100 sz=1 rank_sel=0
[45633000] PROT: GETCMD state cnt=0
[45633000] PROT: GETCMD addr=256 cmd=100 sz=1 rank_sel=0
[45633000] PROT: GETCMD state cnt=0
[45633000] PROT: GETCMD addr=256 cmd=100 sz=1 rank_sel=0
[45663000] DQS_MON: WRITE detected, starting DQS observation window.
[45663000] MEM: WRITE cmd received rank=0 bank=0 row=0 col=128
[45679000] MEM: WRITE burst committed base_idx=0 data=0x0000
[45729000] DQS_MON: window complete, edge_cnt=7.
[45759000] DQS_MON: WRITE detected, starting DQS observation window.
[45759000] MEM: WRITE cmd received rank=0 bank=0 row=0 col=145
[45775000] MEM: WRITE burst committed base_idx=17 data=0x0000
[45825000] DQS_MON: window complete, edge_cnt=7.
[46913000] CTRL: ENQUEUE CMD addr=256 cmd=11 sz=1
[46913000] CTRL: ENQUEUE CMD addr=256 cmd=11 sz=1
[46913000] CTRL: ENQUEUE CMD addr=256 cmd=11 sz=1
[46913000] CTRL: ENQUEUE CMD addr=256 cmd=11 sz=1
[46913000] BLR issued: base_addr=256 SZ=1 (expect 16 beats)
[46915000] PROT: IDLE sees cmdFIFO non-empty (need_refresh=0)
[46915000] PROT: IDLE sees cmdFIFO non-empty (need_refresh=0)
[46915000] PROT: IDLE sees cmdFIFO non-empty (need_refresh=0)
[46915000] PROT: IDLE sees cmdFIFO non-empty (need_refresh=0)
[46917000] PROT: GETCMD state cnt=2
[46917000] PROT: GETCMD state cnt=2
[46917000] PROT: GETCMD state cnt=2
[46917000] PROT: GETCMD state cnt=2
[46919000] PROT: GETCMD state cnt=1
[46919000] PROT: GETCMD state cnt=1
[46919000] PROT: GETCMD state cnt=1
[46919000] PROT: GETCMD state cnt=1
[46921000] PROT: GETCMD state cnt=0
[46921000] PROT: GETCMD addr=256 cmd=11 sz=1 rank_sel=0
[46921000] PROT: GETCMD state cnt=0
[46921000] PROT: GETCMD addr=256 cmd=11 sz=1 rank_sel=0
[46921000] PROT: GETCMD state cnt=0
[46921000] PROT: GETCMD addr=256 cmd=11 sz=1 rank_sel=0
[46921000] PROT: GETCMD state cnt=0
[46921000] PROT: GETCMD addr=256 cmd=11 sz=1 rank_sel=0
[46951000] MEM: READ decode rank=0 bank=0 row=0 col=128
[46951000] MEM: READ cmd received rank=0 bank=0 row=0 col=128
[46999000] MEM: READ beat=1 rank=0 idx=1 data=0x0000
[47001000] MEM: READ beat=2 rank=0 idx=2 data=0x0000
[47003000] MEM: READ beat=3 rank=0 idx=3 data=0x0000
[47005000] MEM: READ beat=4 rank=0 idx=4 data=0x0000
[47007000] MEM: READ beat=5 rank=0 idx=5 data=0x0000
[47009000] MEM: READ beat=6 rank=0 idx=6 data=0x0000
