test/logs/TOP_core_MODE_full_MEM_DEPTH_1024_READ_LAT_24_RANK_BITS_1.log
VCD info: dumpfile tb_ddr2_controller.iverilog.vcd opened for output.
[23000] INITDDR asserted, waiting for READY (init takes ~100k cycles)...
[665000] Detected AUTO REFRESH command on DDR2 bus.
[867000] Detected AUTO REFRESH command on DDR2 bus.
[1899000] READY asserted at cycle 938
[1901000] NOTFULL=1 (FIFOs can accept commands)
[1903000] CTRL: ENQUEUE CMD addr=0 cmd=10 sz=0
[1905000] CTRL: ENQUEUE CMD addr=0 cmd=10 sz=0
[1905000] SCW issued: addr=0 data=0xa5a5
[1907000] PROT: IDLE sees cmdFIFO non-empty (need_refresh=0)
[1909000] PROT: GETCMD state cnt=2
[1911000] PROT: GETCMD state cnt=1
[1913000] PROT: GETCMD state cnt=0
[1913000] PROT: GETCMD addr=0 cmd=10 sz=0 rank_sel=0
[1929000] DQS_MON: WRITE detected, starting DQS observation window.
[1929000] MEM: WRITE cmd received rank=0 bank=0 row=0 col=1
[1945000] MEM: WRITE burst committed base_idx=1 data=0x0000
[1995000] DQS_MON: window complete, edge_cnt=7.
[2327000] CTRL: ENQUEUE CMD addr=0 cmd=1 sz=0
[2329000] CTRL: ENQUEUE CMD addr=0 cmd=1 sz=0
[2329000] SCR issued: addr=0
[2331000] PROT: IDLE sees cmdFIFO non-empty (need_refresh=0)
[2333000] PROT: GETCMD state cnt=2
[2335000] PROT: GETCMD state cnt=1
[2337000] PROT: GETCMD state cnt=0
[2337000] PROT: GETCMD addr=0 cmd=1 sz=0 rank_sel=0
[2351000] PROT: ISSUE_READ bank=0 row=0 col=0 cs=1 ras=1 cas=1 we=1
[2353000] MEM: READ decode rank=0 bank=0 row=0 col=1
[2353000] MEM: READ cmd received rank=0 bank=0 row=0 col=1
[2405000] MEM: READ beat=0 rank=0 idx=1 data=0x0000
[2407000] MEM: READ beat=1 rank=0 idx=2 data=0x0000
[2409000] MEM: READ beat=2 rank=0 idx=3 data=0x0000
[2411000] MEM: READ beat=3 rank=0 idx=4 data=0x0000
[2413000] READ observed: RADDR=0 DOUT=0x0000
[2413000] MEM: READ beat=4 rank=0 idx=5 data=0x0000
[2415000] READ observed: RADDR=1 DOUT=0x0000
[2415000] MEM: READ beat=5 rank=0 idx=6 data=0x0000
[2417000] READ observed: RADDR=2 DOUT=0x0000
[2417000] MEM: READ beat=6 rank=0 idx=7 data=0x0000
[2419000] MEM: READ beat=7 rank=0 idx=8 data=0x0000
[2517000] CTRL: ENQUEUE CMD addr=1 cmd=10 sz=0
[2519000] CTRL: ENQUEUE CMD addr=1 cmd=10 sz=0
[2519000] SCW issued: addr=1 data=0xa4a5
[2521000] PROT: IDLE sees cmdFIFO non-empty (need_refresh=0)
[2523000] PROT: GETCMD state cnt=2
[2525000] PROT: GETCMD state cnt=1
[2527000] PROT: GETCMD state cnt=0
[2527000] PROT: GETCMD addr=1 cmd=10 sz=0 rank_sel=0
[2543000] DQS_MON: WRITE detected, starting DQS observation window.
[2543000] MEM: WRITE cmd received rank=0 bank=0 row=0 col=3
[2559000] MEM: WRITE burst committed base_idx=3 data=0x0000
[2609000] DQS_MON: window complete, edge_cnt=7.
[2941000] CTRL: ENQUEUE CMD addr=1 cmd=1 sz=0
[2943000] CTRL: ENQUEUE CMD addr=1 cmd=1 sz=0
[2943000] SCR issued: addr=1
[2945000] PROT: IDLE sees cmdFIFO non-empty (need_refresh=0)
[2947000] PROT: GETCMD state cnt=2
[2949000] READ observed: RADDR=4 DOUT=0x0000
[2949000] PROT: GETCMD state cnt=1
[2951000] PROT: GETCMD state cnt=0
[2951000] PROT: GETCMD addr=1 cmd=1 sz=0 rank_sel=0
[2951000] READ observed: RADDR=5 DOUT=0x0000
[2953000] READ observed: RADDR=6 DOUT=0xzzzz
[2955000] READ observed: RADDR=6 DOUT=0xzzzz
[2965000] PROT: ISSUE_READ bank=0 row=0 col=1 cs=1 ras=1 cas=1 we=1
[2967000] MEM: READ decode rank=0 bank=0 row=0 col=3
[2967000] MEM: READ cmd received rank=0 bank=0 row=0 col=3
[3019000] MEM: READ beat=0 rank=0 idx=3 data=0x0000
[3021000] MEM: READ beat=1 rank=0 idx=4 data=0x0000
[3023000] MEM: READ beat=2 rank=0 idx=5 data=0x0000
[3025000] MEM: READ beat=3 rank=0 idx=6 data=0x0000
[3027000] MEM: READ beat=4 rank=0 idx=7 data=0x0000
[3029000] MEM: READ beat=5 rank=0 idx=8 data=0x0000
[3031000] MEM: READ beat=6 rank=0 idx=9 data=0x0000
[3033000] MEM: READ beat=7 rank=0 idx=10 data=0x0000
[3053000] CTRL: ENQUEUE CMD addr=128 cmd=10 sz=0
[3055000] CTRL: ENQUEUE CMD addr=128 cmd=10 sz=0
[3055000] SCW issued: addr=128 data=0x25a5
[3057000] PROT: IDLE sees cmdFIFO non-empty (need_refresh=0)
[3059000] PROT: GETCMD state cnt=2
[3061000] PROT: GETCMD state cnt=1
[3063000] PROT: GETCMD state cnt=0
[3063000] PROT: GETCMD addr=128 cmd=10 sz=0 rank_sel=0
[3079000] DQS_MON: WRITE detected, starting DQS observation window.
[3079000] MEM: WRITE cmd received rank=0 bank=0 row=0 col=65
[3095000] MEM: WRITE burst committed base_idx=1 data=0x0000
[3145000] DQS_MON: window complete, edge_cnt=7.
[3477000] CTRL: ENQUEUE CMD addr=128 cmd=1 sz=0
[3479000] CTRL: ENQUEUE CMD addr=128 cmd=1 sz=0
[3479000] SCR issued: addr=128
[3481000] PROT: IDLE sees cmdFIFO non-empty (need_refresh=0)
[3483000] PROT: GETCMD state cnt=2
[3485000] READ observed: RADDR=1 DOUT=0x0000
[3485000] PROT: GETCMD state cnt=1
[3487000] PROT: GETCMD state cnt=0
[3487000] PROT: GETCMD addr=128 cmd=1 sz=0 rank_sel=0
[3487000] READ observed: RADDR=1 DOUT=0x0000
[3489000] READ observed: RADDR=2 DOUT=0x0000
[3491000] READ observed: RADDR=2 DOUT=0x0000
[3501000] PROT: ISSUE_READ bank=0 row=0 col=32 cs=1 ras=1 cas=1 we=1
[3503000] MEM: READ decode rank=0 bank=0 row=0 col=65
[3503000] MEM: READ cmd received rank=0 bank=0 row=0 col=65
[3555000] MEM: READ beat=0 rank=0 idx=1 data=0x0000
[3557000] MEM: READ beat=1 rank=0 idx=2 data=0x0000
[3559000] MEM: READ beat=2 rank=0 idx=3 data=0x0000
[3561000] MEM: READ beat=3 rank=0 idx=4 data=0x0000
[3563000] MEM: READ beat=4 rank=0 idx=5 data=0x0000
[3565000] MEM: READ beat=5 rank=0 idx=6 data=0x0000
[3567000] MEM: READ beat=6 rank=0 idx=7 data=0x0000
[3569000] MEM: READ beat=7 rank=0 idx=8 data=0x0000
[3589000] CTRL: ENQUEUE CMD addr=512 cmd=10 sz=0
[3591000] CTRL: ENQUEUE CMD addr=512 cmd=10 sz=0
[3591000] SCW issued: addr=512 data=0xa5a7
[3593000] PROT: IDLE sees cmdFIFO non-empty (need_refresh=0)
[3595000] PROT: GETCMD state cnt=2
[3597000] PROT: GETCMD state cnt=1
[3599000] PROT: GETCMD state cnt=0
[3599000] PROT: GETCMD addr=512 cmd=10 sz=0 rank_sel=0
[3615000] DQS_MON: WRITE detected, starting DQS observation window.
[3615000] MEM: WRITE cmd received rank=0 bank=0 row=0 col=257
[3631000] MEM: WRITE burst committed base_idx=1 data=0x0000
[3681000] DQS_MON: window complete, edge_cnt=7.
[4013000] CTRL: ENQUEUE CMD addr=512 cmd=1 sz=0
[4015000] CTRL: ENQUEUE CMD addr=512 cmd=1 sz=0
[4015000] SCR issued: addr=512
[4017000] PROT: IDLE sees cmdFIFO non-empty (need_refresh=0)
[4019000] PROT: GETCMD state cnt=2
[4021000] READ observed: RADDR=4 DOUT=0x0000
[4021000] PROT: GETCMD state cnt=1
[4023000] PROT: GETCMD state cnt=0
[4023000] PROT: GETCMD addr=512 cmd=1 sz=0 rank_sel=0
[4023000] READ observed: RADDR=5 DOUT=0x0000
[4025000] READ observed: RADDR=6 DOUT=0x0000
[4027000] READ observed: RADDR=6 DOUT=0x0000
[4037000] PROT: ISSUE_READ bank=0 row=0 col=128 cs=1 ras=1 cas=1 we=1
[4039000] MEM: READ decode rank=0 bank=0 row=0 col=257
[4039000] MEM: READ cmd received rank=0 bank=0 row=0 col=257
[4091000] MEM: READ beat=0 rank=0 idx=1 data=0x0000
[4093000] MEM: READ beat=1 rank=0 idx=2 data=0x0000
[4095000] MEM: READ beat=2 rank=0 idx=3 data=0x0000
[4097000] MEM: READ beat=3 rank=0 idx=4 data=0x0000
[4099000] MEM: READ beat=4 rank=0 idx=5 data=0x0000
[4101000] MEM: READ beat=5 rank=0 idx=6 data=0x0000
[4103000] MEM: READ beat=6 rank=0 idx=7 data=0x0000
[4105000] MEM: READ beat=7 rank=0 idx=8 data=0x0000
[4125000] CTRL: ENQUEUE CMD addr=32 cmd=100 sz=0
[4127000] CTRL: ENQUEUE CMD addr=32 cmd=100 sz=0
[4127000] BLW issued: base_addr=32 SZ=0 (nwords=8)
[4129000] PROT: IDLE sees cmdFIFO non-empty (need_refresh=0)
[4131000] PROT: GETCMD state cnt=2
[4133000] PROT: GETCMD state cnt=1
[4135000] PROT: GETCMD state cnt=0
[4135000] PROT: GETCMD addr=32 cmd=100 sz=0 rank_sel=0
[4165000] DQS_MON: WRITE detected, starting DQS observation window.
[4165000] MEM: WRITE cmd received rank=0 bank=0 row=0 col=17
[4181000] MEM: WRITE burst committed base_idx=17 data=0x0000
[4231000] DQS_MON: window complete, edge_cnt=7.
[5381000] CTRL: ENQUEUE CMD addr=32 cmd=11 sz=0
[5383000] CTRL: ENQUEUE CMD addr=32 cmd=11 sz=0
[5383000] BLR issued: base_addr=32 SZ=0 (expect 8 beats)
[5385000] PROT: IDLE sees cmdFIFO non-empty (need_refresh=0)
[5387000] PROT: GETCMD state cnt=2
[5389000] BLR beat (bus mode) observed: RADDR=8 DOUT=0xzzzz
[5389000] READ observed: RADDR=8 DOUT=0xzzzz
[5389000] PROT: GETCMD state cnt=1
[5391000] PROT: GETCMD state cnt=0
[5391000] PROT: GETCMD addr=32 cmd=11 sz=0 rank_sel=0
[5391000] READ observed: RADDR=128 DOUT=0x0000
[5391000] BLR beat (bus mode) observed: RADDR=128 DOUT=0x0000
[5393000] BLR beat (bus mode) observed: RADDR=128 DOUT=0x0000
[5393000] READ observed: RADDR=128 DOUT=0x0000
[5395000] READ observed: RADDR=129 DOUT=0x0000
[5395000] BLR beat (bus mode) observed: RADDR=129 DOUT=0x0000
[5397000] BLR beat (bus mode) observed: RADDR=130 DOUT=0x0000
[5397000] READ observed: RADDR=130 DOUT=0x0000
[5399000] READ observed: RADDR=131 DOUT=0x0000
[5399000] BLR beat (bus mode) observed: RADDR=131 DOUT=0x0000
[5401000] BLR beat (bus mode) observed: RADDR=132 DOUT=0x0000
[5401000] READ observed: RADDR=132 DOUT=0x0000
[5403000] READ observed: RADDR=133 DOUT=0x0000
[5403000] BLR beat (bus mode) observed: RADDR=133 DOUT=0x0000
[5405000] BLR beat (bus mode) observed: RADDR=134 DOUT=0xzzzz
[5405000] READ observed: RADDR=134 DOUT=0xzzzz
[5407000] READ observed: RADDR=135 DOUT=0xzzzz
[5407000] BLR beat (bus mode) observed: RADDR=135 DOUT=0xzzzz
[5409000] BLR beat (bus mode) observed: RADDR=512 DOUT=0x0000
[5409000] READ observed: RADDR=512 DOUT=0x0000
[5411000] READ observed: RADDR=512 DOUT=0x0000
[5411000] BLR beat (bus mode) observed: RADDR=512 DOUT=0x0000
[5413000] BLR beat (bus mode) observed: RADDR=513 DOUT=0x0000
[5413000] READ observed: RADDR=513 DOUT=0x0000
[5415000] READ observed: RADDR=514 DOUT=0x0000
[5415000] BLR beat (bus mode) observed: RADDR=514 DOUT=0x0000
[5417000] BLR beat (bus mode) observed: RADDR=515 DOUT=0x0000
[5417000] READ observed: RADDR=515 DOUT=0x0000
[5419000] READ observed: RADDR=516 DOUT=0x0000
[5419000] BLR beat (bus mode) observed: RADDR=516 DOUT=0x0000
[5421000] BLR beat (bus mode) observed: RADDR=517 DOUT=0x0000
[5421000] READ observed: RADDR=517 DOUT=0x0000
[5421000] MEM: READ decode rank=0 bank=0 row=0 col=17
[5421000] MEM: READ cmd received rank=0 bank=0 row=0 col=17
[5423000] READ observed: RADDR=518 DOUT=0xzzzz
[5423000] BLR beat (bus mode) observed: RADDR=518 DOUT=0xzzzz
[5425000] BLR beat (bus mode) observed: RADDR=519 DOUT=0xzzzz
[5425000] READ observed: RADDR=519 DOUT=0xzzzz
[5427000] READ observed: RADDR=519 DOUT=0xzzzz
[5427000] BLR beat (bus mode) observed: RADDR=519 DOUT=0xzzzz
[5473000] MEM: READ beat=0 rank=0 idx=17 data=0x0000
[5475000] MEM: READ beat=1 rank=0 idx=18 data=0x0000
[5477000] MEM: READ beat=2 rank=0 idx=19 data=0x0000
[5479000] MEM: READ beat=3 rank=0 idx=20 data=0x0000
[5481000] MEM: READ beat=4 rank=0 idx=21 data=0x0000
[5483000] MEM: READ beat=5 rank=0 idx=22 data=0x0000
[5485000] MEM: READ beat=6 rank=0 idx=23 data=0x0000
[5487000] MEM: READ beat=7 rank=0 idx=24 data=0x0000
[7487000] REF_MON: First AUTO REFRESH observed.
[12313000] REF_MON: AUTO REFRESH interval = 2413 cycles.
[17139000] REF_MON: AUTO REFRESH interval = 2413 cycles.
[21965000] REF_MON: AUTO REFRESH interval = 2413 cycles.
[26791000] REF_MON: AUTO REFRESH interval = 2413 cycles.
[31617000] REF_MON: AUTO REFRESH interval = 2413 cycles.
[36443000] REF_MON: AUTO REFRESH interval = 2413 cycles.
[41269000] REF_MON: AUTO REFRESH interval = 2413 cycles.
[45429000] BLW/BLR sequence OK: base_addr=32 SZ=0 (nwords=8)
[45631000] CTRL: ENQUEUE CMD addr=256 cmd=100 sz=1
[45633000] CTRL: ENQUEUE CMD addr=256 cmd=100 sz=1
[45633000] BLW issued: base_addr=256 SZ=1 (nwords=16)
[45635000] PROT: IDLE sees cmdFIFO non-empty (need_refresh=0)
[45637000] PROT: GETCMD state cnt=2
[45639000] PROT: GETCMD state cnt=1
[45641000] PROT: GETCMD state cnt=0
[45641000] PROT: GETCMD addr=256 cmd=100 sz=1 rank_sel=0
[45671000] DQS_MON: WRITE detected, starting DQS observation window.
[45671000] MEM: WRITE cmd received rank=0 bank=0 row=0 col=128
[45687000] MEM: WRITE burst committed base_idx=0 data=0x0000
[45737000] DQS_MON: window complete, edge_cnt=7.
[45767000] DQS_MON: WRITE detected, starting DQS observation window.
[45767000] MEM: WRITE cmd received rank=0 bank=0 row=0 col=145
[45783000] MEM: WRITE burst committed base_idx=17 data=0x0000
[45833000] DQS_MON: window complete, edge_cnt=7.
[46319000] REF_MON: AUTO REFRESH interval = 2525 cycles.
[46919000] CTRL: ENQUEUE CMD addr=256 cmd=11 sz=1
[46921000] CTRL: ENQUEUE CMD addr=256 cmd=11 sz=1
[46921000] BLR issued: base_addr=256 SZ=1 (expect 16 beats)
[46923000] PROT: IDLE sees cmdFIFO non-empty (need_refresh=0)
[46925000] PROT: GETCMD state cnt=2
[46927000] PROT: GETCMD state cnt=1
[46929000] PROT: GETCMD state cnt=0
[46929000] PROT: GETCMD addr=256 cmd=11 sz=1 rank_sel=0
[46959000] MEM: READ decode rank=0 bank=0 row=0 col=128
[46959000] MEM: READ cmd received rank=0 bank=0 row=0 col=128
[47011000] MEM: READ beat=0 rank=0 idx=0 data=0x0000
[47013000] MEM: READ beat=1 rank=0 idx=1 data=0x0000
[47015000] MEM: READ beat=2 rank=0 idx=2 data=0x0000
[47017000] MEM: READ beat=3 rank=0 idx=3 data=0x0000
[47019000] MEM: READ beat=4 rank=0 idx=4 data=0x0000
[47021000] MEM: READ beat=5 rank=0 idx=5 data=0x0000
[47023000] MEM: READ beat=6 rank=0 idx=6 data=0x0000
[47025000] MEM: READ beat=7 rank=0 idx=7 data=0x0000
[51235000] REF_MON: AUTO REFRESH interval = 2458 cycles.
[56061000] REF_MON: AUTO REFRESH interval = 2413 cycles.
[60887000] REF_MON: AUTO REFRESH interval = 2413 cycles.
[65713000] REF_MON: AUTO REFRESH interval = 2413 cycles.
[70539000] REF_MON: AUTO REFRESH interval = 2413 cycles.
[75365000] REF_MON: AUTO REFRESH interval = 2413 cycles.
[80191000] REF_MON: AUTO REFRESH interval = 2413 cycles.
[85017000] REF_MON: AUTO REFRESH interval = 2413 cycles.
[86923000] BLW/BLR sequence OK: base_addr=256 SZ=1 (nwords=16)
[87125000] CTRL: ENQUEUE CMD addr=384 cmd=100 sz=10
[87127000] CTRL: ENQUEUE CMD addr=384 cmd=100 sz=10
[87127000] BLW issued: base_addr=384 SZ=2 (nwords=24)
[87129000] PROT: IDLE sees cmdFIFO non-empty (need_refresh=0)
[87131000] PROT: GETCMD state cnt=2
[87133000] PROT: GETCMD state cnt=1
[87135000] PROT: GETCMD state cnt=0
[87135000] PROT: GETCMD addr=384 cmd=100 sz=10 rank_sel=0
[87165000] DQS_MON: WRITE detected, starting DQS observation window.
[87165000] MEM: WRITE cmd received rank=0 bank=0 row=0 col=192
[87181000] MEM: WRITE burst committed base_idx=0 data=0x0000
[87231000] DQS_MON: window complete, edge_cnt=7.
[87277000] DQS_MON: WRITE detected, starting DQS observation window.
[87277000] MEM: WRITE cmd received rank=0 bank=0 row=0 col=208
[87293000] MEM: WRITE burst committed base_idx=16 data=0x0000
[87343000] DQS_MON: window complete, edge_cnt=7.
[87389000] DQS_MON: WRITE detected, starting DQS observation window.
[87389000] MEM: WRITE cmd received rank=0 bank=0 row=0 col=225
[87405000] MEM: WRITE burst committed base_idx=1 data=0x0000
[87455000] DQS_MON: window complete, edge_cnt=7.
[88445000] CTRL: ENQUEUE CMD addr=384 cmd=11 sz=10
[88447000] CTRL: ENQUEUE CMD addr=384 cmd=11 sz=10
[88447000] BLR issued: base_addr=384 SZ=2 (expect 24 beats)
[88449000] PROT: IDLE sees cmdFIFO non-empty (need_refresh=0)
[88451000] PROT: GETCMD state cnt=2
[88453000] PROT: GETCMD state cnt=1
[88455000] PROT: GETCMD state cnt=0
[88455000] PROT: GETCMD addr=384 cmd=11 sz=10 rank_sel=0
[88485000] MEM: READ decode rank=0 bank=0 row=0 col=192
[88485000] MEM: READ cmd received rank=0 bank=0 row=0 col=192
[88537000] MEM: READ beat=0 rank=0 idx=0 data=0x0000
[88539000] MEM: READ beat=1 rank=0 idx=1 data=0x0000
[88541000] MEM: READ beat=2 rank=0 idx=2 data=0x0000
[88543000] MEM: READ beat=3 rank=0 idx=3 data=0x0000
[88545000] MEM: READ beat=4 rank=0 idx=4 data=0x0000
[88547000] MEM: READ beat=5 rank=0 idx=5 data=0x0000
[88549000] MEM: READ beat=6 rank=0 idx=6 data=0x0000
[88551000] MEM: READ beat=7 rank=0 idx=7 data=0x0000
[90301000] REF_MON: AUTO REFRESH interval = 2642 cycles.
[95127000] REF_MON: AUTO REFRESH interval = 2413 cycles.
[99953000] REF_MON: AUTO REFRESH interval = 2413 cycles.
[104779000] REF_MON: AUTO REFRESH interval = 2413 cycles.
[109605000] REF_MON: AUTO REFRESH interval = 2413 cycles.
[114431000] REF_MON: AUTO REFRESH interval = 2413 cycles.
[119257000] REF_MON: AUTO REFRESH interval = 2413 cycles.
[124083000] REF_MON: AUTO REFRESH interval = 2413 cycles.
[128449000] BLW/BLR sequence OK: base_addr=384 SZ=2 (nwords=24)
[128651000] CTRL: ENQUEUE CMD addr=512 cmd=100 sz=11
[128653000] CTRL: ENQUEUE CMD addr=512 cmd=100 sz=11
[128653000] BLW issued: base_addr=512 SZ=3 (nwords=32)
[128655000] PROT: IDLE sees cmdFIFO non-empty (need_refresh=0)
[128657000] PROT: GETCMD state cnt=2
[128659000] PROT: GETCMD state cnt=1
[128661000] PROT: GETCMD state cnt=0
[128661000] PROT: GETCMD addr=512 cmd=100 sz=11 rank_sel=0
[128691000] DQS_MON: WRITE detected, starting DQS observation window.
[128691000] MEM: WRITE cmd received rank=0 bank=0 row=0 col=256
[128707000] MEM: WRITE burst committed base_idx=0 data=0x0000
[128757000] DQS_MON: window complete, edge_cnt=7.
[128819000] DQS_MON: WRITE detected, starting DQS observation window.
[128819000] MEM: WRITE cmd received rank=0 bank=0 row=0 col=272
[128835000] MEM: WRITE burst committed base_idx=16 data=0x0000
[128885000] DQS_MON: window complete, edge_cnt=7.
[128947000] DQS_MON: WRITE detected, starting DQS observation window.
[128947000] MEM: WRITE cmd received rank=0 bank=0 row=0 col=288
[128963000] MEM: WRITE burst committed base_idx=0 data=0x0000
[129013000] DQS_MON: window complete, edge_cnt=7.
[129075000] DQS_MON: WRITE detected, starting DQS observation window.
[129075000] MEM: WRITE cmd received rank=0 bank=0 row=0 col=305
[129091000] MEM: WRITE burst committed base_idx=17 data=0x0000
[129141000] DQS_MON: window complete, edge_cnt=7.
[129453000] REF_MON: AUTO REFRESH interval = 2685 cycles.
[130003000] CTRL: ENQUEUE CMD addr=512 cmd=11 sz=11
[130005000] CTRL: ENQUEUE CMD addr=512 cmd=11 sz=11
[130005000] BLR issued: base_addr=512 SZ=3 (expect 32 beats)
[130007000] PROT: IDLE sees cmdFIFO non-empty (need_refresh=0)
[130009000] PROT: GETCMD state cnt=2
[130011000] PROT: GETCMD state cnt=1
[130013000] PROT: GETCMD state cnt=0
[130013000] PROT: GETCMD addr=512 cmd=11 sz=11 rank_sel=0
[130043000] MEM: READ decode rank=0 bank=0 row=0 col=256
[130043000] MEM: READ cmd received rank=0 bank=0 row=0 col=256
[130095000] MEM: READ beat=0 rank=0 idx=0 data=0x0000
[130097000] MEM: READ beat=1 rank=0 idx=1 data=0x0000
[130099000] MEM: READ beat=2 rank=0 idx=2 data=0x0000
[130101000] MEM: READ beat=3 rank=0 idx=3 data=0x0000
[130103000] MEM: READ beat=4 rank=0 idx=4 data=0x0000
[130105000] MEM: READ beat=5 rank=0 idx=5 data=0x0000
[130107000] MEM: READ beat=6 rank=0 idx=6 data=0x0000
[130109000] MEM: READ beat=7 rank=0 idx=7 data=0x0000
[134369000] REF_MON: AUTO REFRESH interval = 2458 cycles.
[139195000] REF_MON: AUTO REFRESH interval = 2413 cycles.
[144021000] REF_MON: AUTO REFRESH interval = 2413 cycles.
[148847000] REF_MON: AUTO REFRESH interval = 2413 cycles.
[153673000] REF_MON: AUTO REFRESH interval = 2413 cycles.
[158499000] REF_MON: AUTO REFRESH interval = 2413 cycles.
[163325000] REF_MON: AUTO REFRESH interval = 2413 cycles.
[168151000] REF_MON: AUTO REFRESH interval = 2413 cycles.
[170007000] BLW/BLR sequence OK: base_addr=512 SZ=3 (nwords=32)
[170207000] Starting FIFO stress / refresh-interleaving test...
[170209000] CTRL: ENQUEUE CMD addr=600 cmd=10 sz=0
[170211000] CTRL: ENQUEUE CMD addr=600 cmd=10 sz=0
[170211000] SCW issued: addr=600 data=0xfda7
[170213000] PROT: IDLE sees cmdFIFO non-empty (need_refresh=0)
[170215000] PROT: GETCMD state cnt=2
[170217000] PROT: GETCMD state cnt=1
[170219000] PROT: GETCMD state cnt=0
[170219000] PROT: GETCMD addr=600 cmd=10 sz=0 rank_sel=0
[170235000] DQS_MON: WRITE detected, starting DQS observation window.
[170235000] MEM: WRITE cmd received rank=0 bank=3 row=0 col=289
[170251000] MEM: WRITE burst committed base_idx=97 data=0x0000
[170301000] DQS_MON: window complete, edge_cnt=7.
[170633000] CTRL: ENQUEUE CMD addr=600 cmd=1 sz=0
[170635000] CTRL: ENQUEUE CMD addr=600 cmd=1 sz=0
[170635000] SCR issued: addr=600
[170637000] PROT: IDLE sees cmdFIFO non-empty (need_refresh=0)
[170639000] PROT: GETCMD state cnt=2
[170641000] PROT: GETCMD state cnt=1
[170643000] PROT: GETCMD state cnt=0
[170643000] PROT: GETCMD addr=600 cmd=1 sz=0 rank_sel=0
[170657000] PROT: ISSUE_READ bank=3 row=0 col=144 cs=1 ras=1 cas=1 we=1
[170659000] MEM: READ decode rank=0 bank=3 row=0 col=289
[170659000] MEM: READ cmd received rank=0 bank=3 row=0 col=289
[170711000] MEM: READ beat=0 rank=0 idx=97 data=0x0000
[170713000] MEM: READ beat=1 rank=0 idx=98 data=0x0000
[170715000] MEM: READ beat=2 rank=0 idx=99 data=0x0000
[170717000] MEM: READ beat=3 rank=0 idx=100 data=0x0000
[170719000] READ observed: RADDR=600 DOUT=0x0000
[170719000] MEM: READ beat=4 rank=0 idx=101 data=0x0000
[170721000] READ observed: RADDR=601 DOUT=0x0000
[170721000] MEM: READ beat=5 rank=0 idx=102 data=0x0000
[170723000] READ observed: RADDR=602 DOUT=0x0000
[170723000] MEM: READ beat=6 rank=0 idx=103 data=0x0000
[170725000] MEM: READ beat=7 rank=0 idx=104 data=0x0000
[170823000] CTRL: ENQUEUE CMD addr=700 cmd=100 sz=1
[170825000] CTRL: ENQUEUE CMD addr=700 cmd=100 sz=1
[170825000] BLW issued: base_addr=700 SZ=1 (nwords=16)
[170827000] PROT: IDLE sees cmdFIFO non-empty (need_refresh=0)
[170829000] PROT: GETCMD state cnt=2
[170831000] PROT: GETCMD state cnt=1
[170833000] PROT: GETCMD state cnt=0
[170833000] PROT: GETCMD addr=700 cmd=100 sz=1 rank_sel=0
[170863000] DQS_MON: WRITE detected, starting DQS observation window.
[170863000] MEM: WRITE cmd received rank=0 bank=3 row=0 col=344
[170879000] MEM: WRITE burst committed base_idx=120 data=0x0000
[170929000] DQS_MON: window complete, edge_cnt=7.
[170959000] DQS_MON: WRITE detected, starting DQS observation window.
[170959000] MEM: WRITE cmd received rank=0 bank=3 row=0 col=361
[170975000] MEM: WRITE burst committed base_idx=105 data=0x0000
[171025000] DQS_MON: window complete, edge_cnt=7.
[172111000] CTRL: ENQUEUE CMD addr=700 cmd=11 sz=1
[172113000] CTRL: ENQUEUE CMD addr=700 cmd=11 sz=1
[172113000] BLR issued: base_addr=700 SZ=1 (expect 16 beats)
[172115000] PROT: IDLE sees cmdFIFO non-empty (need_refresh=0)
[172117000] PROT: GETCMD state cnt=2
[172119000] BLR beat (bus mode) observed: RADDR=604 DOUT=0x0000
[172119000] PROT: GETCMD state cnt=1
[172119000] READ observed: RADDR=604 DOUT=0x0000
[172121000] READ observed: RADDR=605 DOUT=0x0000
[172121000] PROT: GETCMD state cnt=0
[172121000] PROT: GETCMD addr=700 cmd=11 sz=1 rank_sel=0
[172121000] BLR beat (bus mode) observed: RADDR=605 DOUT=0x0000
[172123000] BLR beat (bus mode) observed: RADDR=606 DOUT=0xzzzz
[172123000] READ observed: RADDR=606 DOUT=0xzzzz
[172125000] READ observed: RADDR=607 DOUT=0xzzzz
[172125000] BLR beat (bus mode) observed: RADDR=607 DOUT=0xzzzz
[172127000] BLR beat (bus mode) observed: RADDR=607 DOUT=0xzzzz
[172127000] READ observed: RADDR=607 DOUT=0xzzzz
[172151000] MEM: READ decode rank=0 bank=3 row=0 col=344
[172151000] MEM: READ cmd received rank=0 bank=3 row=0 col=344
[172203000] MEM: READ beat=0 rank=0 idx=120 data=0x0000
[172205000] MEM: READ beat=1 rank=0 idx=121 data=0x0000
[172207000] MEM: READ beat=2 rank=0 idx=122 data=0x0000
[172209000] MEM: READ beat=3 rank=0 idx=123 data=0x0000
[172211000] MEM: READ beat=4 rank=0 idx=124 data=0x0000
[172213000] MEM: READ beat=5 rank=0 idx=125 data=0x0000
[172215000] MEM: READ beat=6 rank=0 idx=126 data=0x0000
[172217000] MEM: READ beat=7 rank=0 idx=127 data=0x0000
[173481000] REF_MON: AUTO REFRESH interval = 2665 cycles.
[178307000] REF_MON: AUTO REFRESH interval = 2413 cycles.
[183133000] REF_MON: AUTO REFRESH interval = 2413 cycles.
[187959000] REF_MON: AUTO REFRESH interval = 2413 cycles.
[192785000] REF_MON: AUTO REFRESH interval = 2413 cycles.
[197611000] REF_MON: AUTO REFRESH interval = 2413 cycles.
[202437000] REF_MON: AUTO REFRESH interval = 2413 cycles.
[207263000] REF_MON: AUTO REFRESH interval = 2413 cycles.
[212089000] REF_MON: AUTO REFRESH interval = 2413 cycles.
[212129000] BLW/BLR sequence OK: base_addr=700 SZ=1 (nwords=16)
[212331000] CTRL: ENQUEUE CMD addr=601 cmd=10 sz=0
[212333000] CTRL: ENQUEUE CMD addr=601 cmd=10 sz=0
[212333000] SCW issued: addr=601 data=0xfca7
[212335000] PROT: IDLE sees cmdFIFO non-empty (need_refresh=0)
[212337000] PROT: GETCMD state cnt=2
[212339000] PROT: GETCMD state cnt=1
[212341000] PROT: GETCMD state cnt=0
[212341000] PROT: GETCMD addr=601 cmd=10 sz=0 rank_sel=0
[212357000] DQS_MON: WRITE detected, starting DQS observation window.
[212357000] MEM: WRITE cmd received rank=0 bank=3 row=0 col=291
[212373000] MEM: WRITE burst committed base_idx=99 data=0x0000
[212423000] DQS_MON: window complete, edge_cnt=7.
[212755000] CTRL: ENQUEUE CMD addr=601 cmd=1 sz=0
[212757000] CTRL: ENQUEUE CMD addr=601 cmd=1 sz=0
[212757000] SCR issued: addr=601
[212759000] PROT: IDLE sees cmdFIFO non-empty (need_refresh=0)
[212761000] PROT: GETCMD state cnt=2
[212763000] PROT: GETCMD state cnt=1
[212765000] PROT: GETCMD state cnt=0
[212765000] PROT: GETCMD addr=601 cmd=1 sz=0 rank_sel=0
[212779000] PROT: ISSUE_READ bank=3 row=0 col=145 cs=1 ras=1 cas=1 we=1
[212781000] MEM: READ decode rank=0 bank=3 row=0 col=291
[212781000] MEM: READ cmd received rank=0 bank=3 row=0 col=291
[212833000] MEM: READ beat=0 rank=0 idx=99 data=0x0000
[212835000] MEM: READ beat=1 rank=0 idx=100 data=0x0000
[212837000] MEM: READ beat=2 rank=0 idx=101 data=0x0000
