test/logs/TOP_server_MODE_full_MEM_DEPTH_1024_READ_LAT_24_RANK_BITS_1.log
VCD info: dumpfile tb_ddr2_server_controller.iverilog.vcd opened for output.
[23000] (server) INITDDR asserted, waiting for READY...
[665000] Detected AUTO REFRESH command on DDR2 bus (server top).
[867000] Detected AUTO REFRESH command on DDR2 bus (server top).
[1899000] (server) READY asserted at cycle 938
[1901000] (server) NOTFULL=1 (FIFOs can accept commands)
[1903000] CTRL: ENQUEUE CMD addr=0 cmd=10 sz=0
[1903000] CTRL: ENQUEUE CMD addr=0 cmd=10 sz=0
[1903000] CTRL: ENQUEUE CMD addr=0 cmd=10 sz=0
[1903000] CTRL: ENQUEUE CMD addr=0 cmd=10 sz=0
[1905000] CTRL: ENQUEUE CMD addr=0 cmd=10 sz=0
[1905000] CTRL: ENQUEUE CMD addr=0 cmd=10 sz=0
[1905000] CTRL: ENQUEUE CMD addr=0 cmd=10 sz=0
[1905000] CTRL: ENQUEUE CMD addr=0 cmd=10 sz=0
[1905000] SCW issued (server): addr=0 data16=0xa5a5
[1907000] PROT: IDLE sees cmdFIFO non-empty (need_refresh=0)
[1907000] PROT: IDLE sees cmdFIFO non-empty (need_refresh=0)
[1907000] PROT: IDLE sees cmdFIFO non-empty (need_refresh=0)
[1907000] PROT: IDLE sees cmdFIFO non-empty (need_refresh=0)
[1909000] PROT: GETCMD state cnt=2
[1909000] PROT: GETCMD state cnt=2
[1909000] PROT: GETCMD state cnt=2
[1909000] PROT: GETCMD state cnt=2
[1911000] PROT: GETCMD state cnt=1
[1911000] PROT: GETCMD state cnt=1
[1911000] PROT: GETCMD state cnt=1
[1911000] PROT: GETCMD state cnt=1
[1913000] PROT: GETCMD state cnt=0
[1913000] PROT: GETCMD addr=0 cmd=10 sz=0 rank_sel=0
[1913000] PROT: GETCMD state cnt=0
[1913000] PROT: GETCMD addr=0 cmd=10 sz=0 rank_sel=0
[1913000] PROT: GETCMD state cnt=0
[1913000] PROT: GETCMD addr=0 cmd=10 sz=0 rank_sel=0
[1913000] PROT: GETCMD state cnt=0
[1913000] PROT: GETCMD addr=0 cmd=10 sz=0 rank_sel=0
[1929000] DQS_MON: WRITE detected, starting DQS observation window.
[1929000] MEM: WRITE cmd received rank=0 bank=0 row=0 col=1
[1945000] MEM: WRITE burst committed base_idx=1 data=0x0000
[1995000] DQS_MON: window complete, edge_cnt=7.
[2327000] CTRL: ENQUEUE CMD addr=0 cmd=1 sz=0
[2327000] CTRL: ENQUEUE CMD addr=0 cmd=1 sz=0
[2327000] CTRL: ENQUEUE CMD addr=0 cmd=1 sz=0
[2327000] CTRL: ENQUEUE CMD addr=0 cmd=1 sz=0
[2329000] CTRL: ENQUEUE CMD addr=0 cmd=1 sz=0
[2329000] CTRL: ENQUEUE CMD addr=0 cmd=1 sz=0
[2329000] CTRL: ENQUEUE CMD addr=0 cmd=1 sz=0
[2329000] CTRL: ENQUEUE CMD addr=0 cmd=1 sz=0
[2329000] SCR issued: addr=0
[2331000] PROT: IDLE sees cmdFIFO non-empty (need_refresh=0)
[2331000] PROT: IDLE sees cmdFIFO non-empty (need_refresh=0)
[2331000] PROT: IDLE sees cmdFIFO non-empty (need_refresh=0)
[2331000] PROT: IDLE sees cmdFIFO non-empty (need_refresh=0)
[2333000] PROT: GETCMD state cnt=2
[2333000] PROT: GETCMD state cnt=2
[2333000] PROT: GETCMD state cnt=2
[2333000] PROT: GETCMD state cnt=2
[2335000] PROT: GETCMD state cnt=1
[2335000] PROT: GETCMD state cnt=1
[2335000] PROT: GETCMD state cnt=1
[2335000] PROT: GETCMD state cnt=1
[2337000] PROT: GETCMD state cnt=0
[2337000] PROT: GETCMD addr=0 cmd=1 sz=0 rank_sel=0
[2337000] PROT: GETCMD state cnt=0
[2337000] PROT: GETCMD addr=0 cmd=1 sz=0 rank_sel=0
[2337000] PROT: GETCMD state cnt=0
[2337000] PROT: GETCMD addr=0 cmd=1 sz=0 rank_sel=0
[2337000] PROT: GETCMD state cnt=0
[2337000] PROT: GETCMD addr=0 cmd=1 sz=0 rank_sel=0
[2351000] PROT: ISSUE_READ bank=0 row=0 col=0 cs=1 ras=1 cas=1 we=1
[2351000] PROT: ISSUE_READ bank=0 row=0 col=0 cs=1 ras=1 cas=1 we=1
[2351000] PROT: ISSUE_READ bank=0 row=0 col=0 cs=1 ras=1 cas=1 we=1
[2351000] PROT: ISSUE_READ bank=0 row=0 col=0 cs=1 ras=1 cas=1 we=1
[2353000] MEM: READ decode rank=0 bank=0 row=0 col=1
[2353000] MEM: READ cmd received rank=0 bank=0 row=0 col=1
[2405000] MEM: READ beat=0 rank=0 idx=1 data=0x0000
[2407000] MEM: READ beat=1 rank=0 idx=2 data=0x0000
[2409000] MEM: READ beat=2 rank=0 idx=3 data=0x0000
[2411000] MEM: READ beat=3 rank=0 idx=4 data=0x0000
[2413000] READ observed (server top): RADDR=0 DOUT=0xzzzzzzzzzzzz0000
[2413000] MEM: READ beat=4 rank=0 idx=5 data=0x0000
[2415000] READ observed (server top): RADDR=1 DOUT=0xzzzzzzzzzzzz0000
[2415000] MEM: READ beat=5 rank=0 idx=6 data=0x0000
[2417000] READ observed (server top): RADDR=2 DOUT=0xzzzzzzzzzzzz0000
[2417000] MEM: READ beat=6 rank=0 idx=7 data=0x0000
[2419000] MEM: READ beat=7 rank=0 idx=8 data=0x0000
[2517000] CTRL: ENQUEUE CMD addr=1 cmd=10 sz=0
[2517000] CTRL: ENQUEUE CMD addr=1 cmd=10 sz=0
[2517000] CTRL: ENQUEUE CMD addr=1 cmd=10 sz=0
[2517000] CTRL: ENQUEUE CMD addr=1 cmd=10 sz=0
[2519000] CTRL: ENQUEUE CMD addr=1 cmd=10 sz=0
[2519000] CTRL: ENQUEUE CMD addr=1 cmd=10 sz=0
[2519000] CTRL: ENQUEUE CMD addr=1 cmd=10 sz=0
[2519000] CTRL: ENQUEUE CMD addr=1 cmd=10 sz=0
[2519000] SCW issued (server): addr=1 data16=0xa4a5
[2521000] PROT: IDLE sees cmdFIFO non-empty (need_refresh=0)
[2521000] PROT: IDLE sees cmdFIFO non-empty (need_refresh=0)
[2521000] PROT: IDLE sees cmdFIFO non-empty (need_refresh=0)
[2521000] PROT: IDLE sees cmdFIFO non-empty (need_refresh=0)
[2523000] PROT: GETCMD state cnt=2
[2523000] PROT: GETCMD state cnt=2
[2523000] PROT: GETCMD state cnt=2
[2523000] PROT: GETCMD state cnt=2
[2525000] PROT: GETCMD state cnt=1
[2525000] PROT: GETCMD state cnt=1
[2525000] PROT: GETCMD state cnt=1
[2525000] PROT: GETCMD state cnt=1
[2527000] PROT: GETCMD state cnt=0
[2527000] PROT: GETCMD addr=1 cmd=10 sz=0 rank_sel=0
[2527000] PROT: GETCMD state cnt=0
[2527000] PROT: GETCMD addr=1 cmd=10 sz=0 rank_sel=0
[2527000] PROT: GETCMD state cnt=0
[2527000] PROT: GETCMD addr=1 cmd=10 sz=0 rank_sel=0
[2527000] PROT: GETCMD state cnt=0
[2527000] PROT: GETCMD addr=1 cmd=10 sz=0 rank_sel=0
[2543000] DQS_MON: WRITE detected, starting DQS observation window.
[2543000] MEM: WRITE cmd received rank=0 bank=0 row=0 col=3
[2559000] MEM: WRITE burst committed base_idx=3 data=0x0000
[2609000] DQS_MON: window complete, edge_cnt=7.
[2941000] CTRL: ENQUEUE CMD addr=1 cmd=1 sz=0
[2941000] CTRL: ENQUEUE CMD addr=1 cmd=1 sz=0
[2941000] CTRL: ENQUEUE CMD addr=1 cmd=1 sz=0
[2941000] CTRL: ENQUEUE CMD addr=1 cmd=1 sz=0
[2943000] CTRL: ENQUEUE CMD addr=1 cmd=1 sz=0
[2943000] CTRL: ENQUEUE CMD addr=1 cmd=1 sz=0
[2943000] CTRL: ENQUEUE CMD addr=1 cmd=1 sz=0
[2943000] CTRL: ENQUEUE CMD addr=1 cmd=1 sz=0
[2943000] SCR issued: addr=1
[2945000] PROT: IDLE sees cmdFIFO non-empty (need_refresh=0)
[2945000] PROT: IDLE sees cmdFIFO non-empty (need_refresh=0)
[2945000] PROT: IDLE sees cmdFIFO non-empty (need_refresh=0)
[2945000] PROT: IDLE sees cmdFIFO non-empty (need_refresh=0)
[2947000] PROT: GETCMD state cnt=2
[2947000] PROT: GETCMD state cnt=2
[2947000] PROT: GETCMD state cnt=2
[2947000] PROT: GETCMD state cnt=2
[2949000] READ observed (server top): RADDR=4 DOUT=0xzzzzzzzzzzzz0000
[2949000] PROT: GETCMD state cnt=1
[2949000] PROT: GETCMD state cnt=1
[2949000] PROT: GETCMD state cnt=1
[2949000] PROT: GETCMD state cnt=1
[2951000] PROT: GETCMD state cnt=0
[2951000] PROT: GETCMD addr=1 cmd=1 sz=0 rank_sel=0
[2951000] PROT: GETCMD state cnt=0
[2951000] PROT: GETCMD addr=1 cmd=1 sz=0 rank_sel=0
[2951000] PROT: GETCMD state cnt=0
[2951000] PROT: GETCMD addr=1 cmd=1 sz=0 rank_sel=0
[2951000] PROT: GETCMD state cnt=0
[2951000] PROT: GETCMD addr=1 cmd=1 sz=0 rank_sel=0
[2951000] READ observed (server top): RADDR=5 DOUT=0xzzzzzzzzzzzz0000
[2953000] READ observed (server top): RADDR=6 DOUT=0xzzzzzzzzzzzzzzzz
[2955000] READ observed (server top): RADDR=6 DOUT=0xzzzzzzzzzzzzzzzz
[2965000] PROT: ISSUE_READ bank=0 row=0 col=1 cs=1 ras=1 cas=1 we=1
[2965000] PROT: ISSUE_READ bank=0 row=0 col=1 cs=1 ras=1 cas=1 we=1
[2965000] PROT: ISSUE_READ bank=0 row=0 col=1 cs=1 ras=1 cas=1 we=1
[2965000] PROT: ISSUE_READ bank=0 row=0 col=1 cs=1 ras=1 cas=1 we=1
[2967000] MEM: READ decode rank=0 bank=0 row=0 col=3
[2967000] MEM: READ cmd received rank=0 bank=0 row=0 col=3
[3019000] MEM: READ beat=0 rank=0 idx=3 data=0x0000
[3021000] MEM: READ beat=1 rank=0 idx=4 data=0x0000
[3023000] MEM: READ beat=2 rank=0 idx=5 data=0x0000
[3025000] MEM: READ beat=3 rank=0 idx=6 data=0x0000
[3027000] MEM: READ beat=4 rank=0 idx=7 data=0x0000
[3029000] MEM: READ beat=5 rank=0 idx=8 data=0x0000
[3031000] MEM: READ beat=6 rank=0 idx=9 data=0x0000
[3033000] MEM: READ beat=7 rank=0 idx=10 data=0x0000
[3053000] CTRL: ENQUEUE CMD addr=128 cmd=10 sz=0
[3053000] CTRL: ENQUEUE CMD addr=128 cmd=10 sz=0
[3053000] CTRL: ENQUEUE CMD addr=128 cmd=10 sz=0
[3053000] CTRL: ENQUEUE CMD addr=128 cmd=10 sz=0
[3055000] CTRL: ENQUEUE CMD addr=128 cmd=10 sz=0
[3055000] CTRL: ENQUEUE CMD addr=128 cmd=10 sz=0
[3055000] CTRL: ENQUEUE CMD addr=128 cmd=10 sz=0
[3055000] CTRL: ENQUEUE CMD addr=128 cmd=10 sz=0
[3055000] SCW issued (server): addr=128 data16=0x25a5
[3057000] PROT: IDLE sees cmdFIFO non-empty (need_refresh=0)
[3057000] PROT: IDLE sees cmdFIFO non-empty (need_refresh=0)
[3057000] PROT: IDLE sees cmdFIFO non-empty (need_refresh=0)
[3057000] PROT: IDLE sees cmdFIFO non-empty (need_refresh=0)
[3059000] PROT: GETCMD state cnt=2
[3059000] PROT: GETCMD state cnt=2
[3059000] PROT: GETCMD state cnt=2
[3059000] PROT: GETCMD state cnt=2
[3061000] PROT: GETCMD state cnt=1
[3061000] PROT: GETCMD state cnt=1
[3061000] PROT: GETCMD state cnt=1
[3061000] PROT: GETCMD state cnt=1
[3063000] PROT: GETCMD state cnt=0
[3063000] PROT: GETCMD addr=128 cmd=10 sz=0 rank_sel=0
[3063000] PROT: GETCMD state cnt=0
[3063000] PROT: GETCMD addr=128 cmd=10 sz=0 rank_sel=0
[3063000] PROT: GETCMD state cnt=0
[3063000] PROT: GETCMD addr=128 cmd=10 sz=0 rank_sel=0
[3063000] PROT: GETCMD state cnt=0
[3063000] PROT: GETCMD addr=128 cmd=10 sz=0 rank_sel=0
[3079000] DQS_MON: WRITE detected, starting DQS observation window.
[3079000] MEM: WRITE cmd received rank=0 bank=0 row=0 col=65
[3095000] MEM: WRITE burst committed base_idx=1 data=0x0000
[3145000] DQS_MON: window complete, edge_cnt=7.
[3477000] CTRL: ENQUEUE CMD addr=128 cmd=1 sz=0
[3477000] CTRL: ENQUEUE CMD addr=128 cmd=1 sz=0
[3477000] CTRL: ENQUEUE CMD addr=128 cmd=1 sz=0
[3477000] CTRL: ENQUEUE CMD addr=128 cmd=1 sz=0
[3479000] CTRL: ENQUEUE CMD addr=128 cmd=1 sz=0
[3479000] CTRL: ENQUEUE CMD addr=128 cmd=1 sz=0
[3479000] CTRL: ENQUEUE CMD addr=128 cmd=1 sz=0
[3479000] CTRL: ENQUEUE CMD addr=128 cmd=1 sz=0
[3479000] SCR issued: addr=128
[3481000] PROT: IDLE sees cmdFIFO non-empty (need_refresh=0)
[3481000] PROT: IDLE sees cmdFIFO non-empty (need_refresh=0)
[3481000] PROT: IDLE sees cmdFIFO non-empty (need_refresh=0)
[3481000] PROT: IDLE sees cmdFIFO non-empty (need_refresh=0)
[3483000] PROT: GETCMD state cnt=2
[3483000] PROT: GETCMD state cnt=2
[3483000] PROT: GETCMD state cnt=2
[3483000] PROT: GETCMD state cnt=2
[3485000] READ observed (server top): RADDR=1 DOUT=0xzzzzzzzzzzzz0000
[3485000] PROT: GETCMD state cnt=1
[3485000] PROT: GETCMD state cnt=1
[3485000] PROT: GETCMD state cnt=1
[3485000] PROT: GETCMD state cnt=1
[3487000] PROT: GETCMD state cnt=0
[3487000] PROT: GETCMD addr=128 cmd=1 sz=0 rank_sel=0
[3487000] PROT: GETCMD state cnt=0
[3487000] PROT: GETCMD addr=128 cmd=1 sz=0 rank_sel=0
[3487000] PROT: GETCMD state cnt=0
[3487000] PROT: GETCMD addr=128 cmd=1 sz=0 rank_sel=0
[3487000] PROT: GETCMD state cnt=0
[3487000] PROT: GETCMD addr=128 cmd=1 sz=0 rank_sel=0
[3487000] READ observed (server top): RADDR=1 DOUT=0xzzzzzzzzzzzz0000
[3489000] READ observed (server top): RADDR=2 DOUT=0xzzzzzzzzzzzz0000
[3491000] READ observed (server top): RADDR=2 DOUT=0xzzzzzzzzzzzz0000
[3501000] PROT: ISSUE_READ bank=0 row=0 col=32 cs=1 ras=1 cas=1 we=1
[3501000] PROT: ISSUE_READ bank=0 row=0 col=32 cs=1 ras=1 cas=1 we=1
[3501000] PROT: ISSUE_READ bank=0 row=0 col=32 cs=1 ras=1 cas=1 we=1
[3501000] PROT: ISSUE_READ bank=0 row=0 col=32 cs=1 ras=1 cas=1 we=1
[3503000] MEM: READ decode rank=0 bank=0 row=0 col=65
[3503000] MEM: READ cmd received rank=0 bank=0 row=0 col=65
[3555000] MEM: READ beat=0 rank=0 idx=1 data=0x0000
[3557000] MEM: READ beat=1 rank=0 idx=2 data=0x0000
[3559000] MEM: READ beat=2 rank=0 idx=3 data=0x0000
[3561000] MEM: READ beat=3 rank=0 idx=4 data=0x0000
[3563000] MEM: READ beat=4 rank=0 idx=5 data=0x0000
[3565000] MEM: READ beat=5 rank=0 idx=6 data=0x0000
[3567000] MEM: READ beat=6 rank=0 idx=7 data=0x0000
[3569000] MEM: READ beat=7 rank=0 idx=8 data=0x0000
[3589000] CTRL: ENQUEUE CMD addr=512 cmd=10 sz=0
[3589000] CTRL: ENQUEUE CMD addr=512 cmd=10 sz=0
[3589000] CTRL: ENQUEUE CMD addr=512 cmd=10 sz=0
[3589000] CTRL: ENQUEUE CMD addr=512 cmd=10 sz=0
[3591000] CTRL: ENQUEUE CMD addr=512 cmd=10 sz=0
[3591000] CTRL: ENQUEUE CMD addr=512 cmd=10 sz=0
[3591000] CTRL: ENQUEUE CMD addr=512 cmd=10 sz=0
[3591000] CTRL: ENQUEUE CMD addr=512 cmd=10 sz=0
[3591000] SCW issued (server): addr=512 data16=0xa5a7
[3593000] PROT: IDLE sees cmdFIFO non-empty (need_refresh=0)
[3593000] PROT: IDLE sees cmdFIFO non-empty (need_refresh=0)
[3593000] PROT: IDLE sees cmdFIFO non-empty (need_refresh=0)
[3593000] PROT: IDLE sees cmdFIFO non-empty (need_refresh=0)
[3595000] PROT: GETCMD state cnt=2
[3595000] PROT: GETCMD state cnt=2
[3595000] PROT: GETCMD state cnt=2
[3595000] PROT: GETCMD state cnt=2
[3597000] PROT: GETCMD state cnt=1
[3597000] PROT: GETCMD state cnt=1
[3597000] PROT: GETCMD state cnt=1
[3597000] PROT: GETCMD state cnt=1
[3599000] PROT: GETCMD state cnt=0
[3599000] PROT: GETCMD addr=512 cmd=10 sz=0 rank_sel=0
[3599000] PROT: GETCMD state cnt=0
[3599000] PROT: GETCMD addr=512 cmd=10 sz=0 rank_sel=0
[3599000] PROT: GETCMD state cnt=0
[3599000] PROT: GETCMD addr=512 cmd=10 sz=0 rank_sel=0
[3599000] PROT: GETCMD state cnt=0
[3599000] PROT: GETCMD addr=512 cmd=10 sz=0 rank_sel=0
[3615000] DQS_MON: WRITE detected, starting DQS observation window.
[3615000] MEM: WRITE cmd received rank=0 bank=0 row=0 col=257
[3631000] MEM: WRITE burst committed base_idx=1 data=0x0000
[3681000] DQS_MON: window complete, edge_cnt=7.
[4013000] CTRL: ENQUEUE CMD addr=512 cmd=1 sz=0
[4013000] CTRL: ENQUEUE CMD addr=512 cmd=1 sz=0
[4013000] CTRL: ENQUEUE CMD addr=512 cmd=1 sz=0
[4013000] CTRL: ENQUEUE CMD addr=512 cmd=1 sz=0
[4015000] CTRL: ENQUEUE CMD addr=512 cmd=1 sz=0
[4015000] CTRL: ENQUEUE CMD addr=512 cmd=1 sz=0
[4015000] CTRL: ENQUEUE CMD addr=512 cmd=1 sz=0
[4015000] CTRL: ENQUEUE CMD addr=512 cmd=1 sz=0
[4015000] SCR issued: addr=512
[4017000] PROT: IDLE sees cmdFIFO non-empty (need_refresh=0)
[4017000] PROT: IDLE sees cmdFIFO non-empty (need_refresh=0)
[4017000] PROT: IDLE sees cmdFIFO non-empty (need_refresh=0)
[4017000] PROT: IDLE sees cmdFIFO non-empty (need_refresh=0)
[4019000] PROT: GETCMD state cnt=2
[4019000] PROT: GETCMD state cnt=2
[4019000] PROT: GETCMD state cnt=2
[4019000] PROT: GETCMD state cnt=2
[4021000] READ observed (server top): RADDR=4 DOUT=0xzzzzzzzzzzzz0000
[4021000] PROT: GETCMD state cnt=1
[4021000] PROT: GETCMD state cnt=1
[4021000] PROT: GETCMD state cnt=1
[4021000] PROT: GETCMD state cnt=1
[4023000] PROT: GETCMD state cnt=0
[4023000] PROT: GETCMD addr=512 cmd=1 sz=0 rank_sel=0
[4023000] PROT: GETCMD state cnt=0
[4023000] PROT: GETCMD addr=512 cmd=1 sz=0 rank_sel=0
[4023000] PROT: GETCMD state cnt=0
[4023000] PROT: GETCMD addr=512 cmd=1 sz=0 rank_sel=0
[4023000] PROT: GETCMD state cnt=0
[4023000] PROT: GETCMD addr=512 cmd=1 sz=0 rank_sel=0
[4023000] READ observed (server top): RADDR=5 DOUT=0xzzzzzzzzzzzz0000
[4025000] READ observed (server top): RADDR=6 DOUT=0xzzzzzzzzzzzz0000
[4027000] READ observed (server top): RADDR=6 DOUT=0xzzzzzzzzzzzz0000
[4037000] PROT: ISSUE_READ bank=0 row=0 col=128 cs=1 ras=1 cas=1 we=1
[4037000] PROT: ISSUE_READ bank=0 row=0 col=128 cs=1 ras=1 cas=1 we=1
[4037000] PROT: ISSUE_READ bank=0 row=0 col=128 cs=1 ras=1 cas=1 we=1
[4037000] PROT: ISSUE_READ bank=0 row=0 col=128 cs=1 ras=1 cas=1 we=1
[4039000] MEM: READ decode rank=0 bank=0 row=0 col=257
[4039000] MEM: READ cmd received rank=0 bank=0 row=0 col=257
[4091000] MEM: READ beat=0 rank=0 idx=1 data=0x0000
[4093000] MEM: READ beat=1 rank=0 idx=2 data=0x0000
[4095000] MEM: READ beat=2 rank=0 idx=3 data=0x0000
[4097000] MEM: READ beat=3 rank=0 idx=4 data=0x0000
[4099000] MEM: READ beat=4 rank=0 idx=5 data=0x0000
[4101000] MEM: READ beat=5 rank=0 idx=6 data=0x0000
[4103000] MEM: READ beat=6 rank=0 idx=7 data=0x0000
[4105000] MEM: READ beat=7 rank=0 idx=8 data=0x0000
[4125000] CTRL: ENQUEUE CMD addr=32 cmd=100 sz=0
[4125000] CTRL: ENQUEUE CMD addr=32 cmd=100 sz=0
[4125000] CTRL: ENQUEUE CMD addr=32 cmd=100 sz=0
[4125000] CTRL: ENQUEUE CMD addr=32 cmd=100 sz=0
[4127000] CTRL: ENQUEUE CMD addr=32 cmd=100 sz=0
[4127000] CTRL: ENQUEUE CMD addr=32 cmd=100 sz=0
[4127000] CTRL: ENQUEUE CMD addr=32 cmd=100 sz=0
[4127000] CTRL: ENQUEUE CMD addr=32 cmd=100 sz=0
[4127000] BLW issued: base_addr=32 SZ=0 (nwords=8)
[4129000] PROT: IDLE sees cmdFIFO non-empty (need_refresh=0)
[4129000] PROT: IDLE sees cmdFIFO non-empty (need_refresh=0)
[4129000] PROT: IDLE sees cmdFIFO non-empty (need_refresh=0)
[4129000] PROT: IDLE sees cmdFIFO non-empty (need_refresh=0)
[4131000] PROT: GETCMD state cnt=2
[4131000] PROT: GETCMD state cnt=2
[4131000] PROT: GETCMD state cnt=2
[4131000] PROT: GETCMD state cnt=2
[4133000] PROT: GETCMD state cnt=1
[4133000] PROT: GETCMD state cnt=1
[4133000] PROT: GETCMD state cnt=1
[4133000] PROT: GETCMD state cnt=1
[4135000] PROT: GETCMD state cnt=0
[4135000] PROT: GETCMD addr=32 cmd=100 sz=0 rank_sel=0
[4135000] PROT: GETCMD state cnt=0
[4135000] PROT: GETCMD addr=32 cmd=100 sz=0 rank_sel=0
[4135000] PROT: GETCMD state cnt=0
[4135000] PROT: GETCMD addr=32 cmd=100 sz=0 rank_sel=0
[4135000] PROT: GETCMD state cnt=0
[4135000] PROT: GETCMD addr=32 cmd=100 sz=0 rank_sel=0
[4165000] DQS_MON: WRITE detected, starting DQS observation window.
[4165000] MEM: WRITE cmd received rank=0 bank=0 row=0 col=17
[4181000] MEM: WRITE burst committed base_idx=17 data=0x0000
[4231000] DQS_MON: window complete, edge_cnt=7.
[5381000] CTRL: ENQUEUE CMD addr=32 cmd=11 sz=0
[5381000] CTRL: ENQUEUE CMD addr=32 cmd=11 sz=0
[5381000] CTRL: ENQUEUE CMD addr=32 cmd=11 sz=0
[5381000] CTRL: ENQUEUE CMD addr=32 cmd=11 sz=0
[5383000] CTRL: ENQUEUE CMD addr=32 cmd=11 sz=0
[5383000] CTRL: ENQUEUE CMD addr=32 cmd=11 sz=0
[5383000] CTRL: ENQUEUE CMD addr=32 cmd=11 sz=0
[5383000] CTRL: ENQUEUE CMD addr=32 cmd=11 sz=0
[5383000] BLR issued: base_addr=32 SZ=0 (expect 8 beats)
[5385000] PROT: IDLE sees cmdFIFO non-empty (need_refresh=0)
[5385000] PROT: IDLE sees cmdFIFO non-empty (need_refresh=0)
[5385000] PROT: IDLE sees cmdFIFO non-empty (need_refresh=0)
[5385000] PROT: IDLE sees cmdFIFO non-empty (need_refresh=0)
[5387000] PROT: GETCMD state cnt=2
[5387000] PROT: GETCMD state cnt=2
[5387000] PROT: GETCMD state cnt=2
[5387000] PROT: GETCMD state cnt=2
[5389000] BLR beat (bus mode) observed: RADDR=8 DOUT=0xzzzzzzzzzzzzzzzz
[5389000] READ observed (server top): RADDR=8 DOUT=0xzzzzzzzzzzzzzzzz
[5389000] PROT: GETCMD state cnt=1
[5389000] PROT: GETCMD state cnt=1
[5389000] PROT: GETCMD state cnt=1
[5389000] PROT: GETCMD state cnt=1
[5391000] PROT: GETCMD state cnt=0
[5391000] PROT: GETCMD addr=32 cmd=11 sz=0 rank_sel=0
[5391000] PROT: GETCMD state cnt=0
[5391000] PROT: GETCMD addr=32 cmd=11 sz=0 rank_sel=0
[5391000] PROT: GETCMD state cnt=0
[5391000] PROT: GETCMD addr=32 cmd=11 sz=0 rank_sel=0
[5391000] PROT: GETCMD state cnt=0
[5391000] PROT: GETCMD addr=32 cmd=11 sz=0 rank_sel=0
[5391000] READ observed (server top): RADDR=128 DOUT=0xzzzzzzzzzzzz0000
[5391000] BLR beat (bus mode) observed: RADDR=128 DOUT=0xzzzzzzzzzzzz0000
[5393000] BLR beat (bus mode) observed: RADDR=128 DOUT=0xzzzzzzzzzzzz0000
[5393000] READ observed (server top): RADDR=128 DOUT=0xzzzzzzzzzzzz0000
[5395000] READ observed (server top): RADDR=129 DOUT=0xzzzzzzzzzzzz0000
[5395000] BLR beat (bus mode) observed: RADDR=129 DOUT=0xzzzzzzzzzzzz0000
[5397000] BLR beat (bus mode) observed: RADDR=130 DOUT=0xzzzzzzzzzzzz0000
[5397000] READ observed (server top): RADDR=130 DOUT=0xzzzzzzzzzzzz0000
[5399000] READ observed (server top): RADDR=131 DOUT=0xzzzzzzzzzzzz0000
[5399000] BLR beat (bus mode) observed: RADDR=131 DOUT=0xzzzzzzzzzzzz0000
[5401000] BLR beat (bus mode) observed: RADDR=132 DOUT=0xzzzzzzzzzzzz0000
[5401000] READ observed (server top): RADDR=132 DOUT=0xzzzzzzzzzzzz0000
[5403000] READ observed (server top): RADDR=133 DOUT=0xzzzzzzzzzzzz0000
[5403000] BLR beat (bus mode) observed: RADDR=133 DOUT=0xzzzzzzzzzzzz0000
[5405000] BLR beat (bus mode) observed: RADDR=134 DOUT=0xzzzzzzzzzzzzzzzz
[5405000] READ observed (server top): RADDR=134 DOUT=0xzzzzzzzzzzzzzzzz
[5407000] READ observed (server top): RADDR=135 DOUT=0xzzzzzzzzzzzzzzzz
[5407000] BLR beat (bus mode) observed: RADDR=135 DOUT=0xzzzzzzzzzzzzzzzz
[5409000] BLR beat (bus mode) observed: RADDR=512 DOUT=0xzzzzzzzzzzzz0000
[5409000] READ observed (server top): RADDR=512 DOUT=0xzzzzzzzzzzzz0000
[5411000] READ observed (server top): RADDR=512 DOUT=0xzzzzzzzzzzzz0000
[5411000] BLR beat (bus mode) observed: RADDR=512 DOUT=0xzzzzzzzzzzzz0000
[5413000] BLR beat (bus mode) observed: RADDR=513 DOUT=0xzzzzzzzzzzzz0000
[5413000] READ observed (server top): RADDR=513 DOUT=0xzzzzzzzzzzzz0000
[5415000] READ observed (server top): RADDR=514 DOUT=0xzzzzzzzzzzzz0000
[5415000] BLR beat (bus mode) observed: RADDR=514 DOUT=0xzzzzzzzzzzzz0000
[5417000] BLR beat (bus mode) observed: RADDR=515 DOUT=0xzzzzzzzzzzzz0000
[5417000] READ observed (server top): RADDR=515 DOUT=0xzzzzzzzzzzzz0000
[5419000] READ observed (server top): RADDR=516 DOUT=0xzzzzzzzzzzzz0000
[5419000] BLR beat (bus mode) observed: RADDR=516 DOUT=0xzzzzzzzzzzzz0000
[5421000] BLR beat (bus mode) observed: RADDR=517 DOUT=0xzzzzzzzzzzzz0000
[5421000] READ observed (server top): RADDR=517 DOUT=0xzzzzzzzzzzzz0000
[5421000] MEM: READ decode rank=0 bank=0 row=0 col=17
[5421000] MEM: READ cmd received rank=0 bank=0 row=0 col=17
[5423000] READ observed (server top): RADDR=518 DOUT=0xzzzzzzzzzzzzzzzz
[5423000] BLR beat (bus mode) observed: RADDR=518 DOUT=0xzzzzzzzzzzzzzzzz
[5425000] BLR beat (bus mode) observed: RADDR=519 DOUT=0xzzzzzzzzzzzzzzzz
[5425000] READ observed (server top): RADDR=519 DOUT=0xzzzzzzzzzzzzzzzz
[5427000] READ observed (server top): RADDR=519 DOUT=0xzzzzzzzzzzzzzzzz
[5427000] BLR beat (bus mode) observed: RADDR=519 DOUT=0xzzzzzzzzzzzzzzzz
[5473000] MEM: READ beat=0 rank=0 idx=17 data=0x0000
[5475000] MEM: READ beat=1 rank=0 idx=18 data=0x0000
[5477000] MEM: READ beat=2 rank=0 idx=19 data=0x0000
[5479000] MEM: READ beat=3 rank=0 idx=20 data=0x0000
[5481000] MEM: READ beat=4 rank=0 idx=21 data=0x0000
[5483000] MEM: READ beat=5 rank=0 idx=22 data=0x0000
[5485000] MEM: READ beat=6 rank=0 idx=23 data=0x0000
[5487000] MEM: READ beat=7 rank=0 idx=24 data=0x0000
[7487000] REF_MON: First AUTO REFRESH observed.
[12313000] REF_MON: AUTO REFRESH interval = 2413 cycles.
[17139000] REF_MON: AUTO REFRESH interval = 2413 cycles.
[21965000] REF_MON: AUTO REFRESH interval = 2413 cycles.
[26791000] REF_MON: AUTO REFRESH interval = 2413 cycles.
[31617000] REF_MON: AUTO REFRESH interval = 2413 cycles.
[36443000] REF_MON: AUTO REFRESH interval = 2413 cycles.
[41269000] REF_MON: AUTO REFRESH interval = 2413 cycles.
[45429000] BLW/BLR sequence OK: base_addr=32 SZ=0 (nwords=8)
[45631000] CTRL: ENQUEUE CMD addr=256 cmd=100 sz=1
[45631000] CTRL: ENQUEUE CMD addr=256 cmd=100 sz=1
[45631000] CTRL: ENQUEUE CMD addr=256 cmd=100 sz=1
[45631000] CTRL: ENQUEUE CMD addr=256 cmd=100 sz=1
[45633000] CTRL: ENQUEUE CMD addr=256 cmd=100 sz=1
[45633000] CTRL: ENQUEUE CMD addr=256 cmd=100 sz=1
[45633000] CTRL: ENQUEUE CMD addr=256 cmd=100 sz=1
[45633000] CTRL: ENQUEUE CMD addr=256 cmd=100 sz=1
[45633000] BLW issued: base_addr=256 SZ=1 (nwords=16)
[45635000] PROT: IDLE sees cmdFIFO non-empty (need_refresh=0)
[45635000] PROT: IDLE sees cmdFIFO non-empty (need_refresh=0)
