test/logs/TOP_core_MODE_fast_MEM_DEPTH_1024_READ_LAT_24_RANK_BITS_2.log
VCD info: dumpfile tb_ddr2_controller.iverilog.vcd opened for output.
[23000] INITDDR asserted, waiting for READY (init takes ~100k cycles)...
[665000] Detected AUTO REFRESH command on DDR2 bus.
[867000] Detected AUTO REFRESH command on DDR2 bus.
[1899000] READY asserted at cycle 938
[1901000] NOTFULL=1 (FIFOs can accept commands)
[1903000] CTRL: ENQUEUE CMD addr=0 cmd=10 sz=0
[1905000] CTRL: ENQUEUE CMD addr=0 cmd=10 sz=0
[1905000] SCW issued: addr=0 data=0xa5a5
[1907000] PROT: IDLE sees cmdFIFO non-empty (need_refresh=0)
[1909000] PROT: GETCMD state cnt=2
[1911000] PROT: GETCMD state cnt=1
[1913000] PROT: GETCMD state cnt=0
[1913000] PROT: GETCMD addr=0 cmd=10 sz=0 rank_sel=0
[1929000] DQS_MON: WRITE detected, starting DQS observation window.
[1929000] MEM: WRITE cmd received rank=0 bank=0 row=0 col=1
[1945000] MEM: WRITE burst committed base_idx=1 data=0x0000
[1995000] DQS_MON: window complete, edge_cnt=7.
[2327000] CTRL: ENQUEUE CMD addr=0 cmd=1 sz=0
[2329000] CTRL: ENQUEUE CMD addr=0 cmd=1 sz=0
[2329000] SCR issued: addr=0
[2331000] PROT: IDLE sees cmdFIFO non-empty (need_refresh=0)
[2333000] READ observed: RADDR=0 DOUT=0xa5a5
[2333000] PROT: GETCMD state cnt=2
[2335000] PROT: GETCMD state cnt=1
[2337000] PROT: GETCMD state cnt=0
[2337000] PROT: GETCMD addr=0 cmd=1 sz=0 rank_sel=0
[2351000] PROT: ISSUE_READ bank=0 row=0 col=0 cs=1 ras=1 cas=1 we=1
[2353000] MEM: READ decode rank=3 bank=0 row=0 col=1
[2353000] MEM: READ cmd received rank=0 bank=0 row=0 col=1
[2405000] MEM: READ beat=0 rank=3 idx=1 data=0x0000
[2407000] MEM: READ beat=1 rank=3 idx=2 data=0x0000
[2409000] MEM: READ beat=2 rank=3 idx=3 data=0x0000
[2411000] MEM: READ beat=3 rank=3 idx=4 data=0x0000
[2413000] MEM: READ beat=4 rank=3 idx=5 data=0x0000
[2415000] MEM: READ beat=5 rank=3 idx=6 data=0x0000
[2417000] MEM: READ beat=6 rank=3 idx=7 data=0x0000
[2419000] MEM: READ beat=7 rank=3 idx=8 data=0x0000
[2437000] CTRL: ENQUEUE CMD addr=1 cmd=10 sz=0
[2439000] CTRL: ENQUEUE CMD addr=1 cmd=10 sz=0
[2439000] SCW issued: addr=1 data=0xa4a5
[2441000] PROT: IDLE sees cmdFIFO non-empty (need_refresh=0)
[2443000] PROT: GETCMD state cnt=2
[2445000] PROT: GETCMD state cnt=1
[2447000] PROT: GETCMD state cnt=0
[2447000] PROT: GETCMD addr=1 cmd=10 sz=0 rank_sel=0
[2463000] DQS_MON: WRITE detected, starting DQS observation window.
[2463000] MEM: WRITE cmd received rank=3 bank=0 row=0 col=3
[2479000] MEM: WRITE burst committed base_idx=3 data=0x0000
[2529000] DQS_MON: window complete, edge_cnt=7.
[2861000] CTRL: ENQUEUE CMD addr=1 cmd=1 sz=0
[2863000] CTRL: ENQUEUE CMD addr=1 cmd=1 sz=0
[2863000] SCR issued: addr=1
[2865000] PROT: IDLE sees cmdFIFO non-empty (need_refresh=0)
[2867000] READ observed: RADDR=1 DOUT=0xa4a5
[2867000] PROT: GETCMD state cnt=2
[2869000] PROT: GETCMD state cnt=1
[2871000] PROT: GETCMD state cnt=0
[2871000] PROT: GETCMD addr=1 cmd=1 sz=0 rank_sel=0
[2885000] PROT: ISSUE_READ bank=0 row=0 col=1 cs=1 ras=1 cas=1 we=1
[2887000] MEM: READ decode rank=3 bank=0 row=0 col=3
[2887000] MEM: READ cmd received rank=3 bank=0 row=0 col=3
[2939000] MEM: READ beat=0 rank=3 idx=3 data=0x0000
[2941000] MEM: READ beat=1 rank=3 idx=4 data=0x0000
[2943000] MEM: READ beat=2 rank=3 idx=5 data=0x0000
[2945000] MEM: READ beat=3 rank=3 idx=6 data=0x0000
[2947000] MEM: READ beat=4 rank=3 idx=7 data=0x0000
[2949000] MEM: READ beat=5 rank=3 idx=8 data=0x0000
[2951000] MEM: READ beat=6 rank=3 idx=9 data=0x0000
[2953000] MEM: READ beat=7 rank=3 idx=10 data=0x0000
[2971000] CTRL: ENQUEUE CMD addr=128 cmd=10 sz=0
[2973000] CTRL: ENQUEUE CMD addr=128 cmd=10 sz=0
[2973000] SCW issued: addr=128 data=0x25a5
[2975000] PROT: IDLE sees cmdFIFO non-empty (need_refresh=0)
[2977000] PROT: GETCMD state cnt=2
[2979000] PROT: GETCMD state cnt=1
[2981000] PROT: GETCMD state cnt=0
[2981000] PROT: GETCMD addr=128 cmd=10 sz=0 rank_sel=0
[2997000] DQS_MON: WRITE detected, starting DQS observation window.
[2997000] MEM: WRITE cmd received rank=3 bank=0 row=0 col=65
[3013000] MEM: WRITE burst committed base_idx=1 data=0x0000
[3063000] DQS_MON: window complete, edge_cnt=7.
[3395000] CTRL: ENQUEUE CMD addr=128 cmd=1 sz=0
[3397000] CTRL: ENQUEUE CMD addr=128 cmd=1 sz=0
[3397000] SCR issued: addr=128
[3399000] PROT: IDLE sees cmdFIFO non-empty (need_refresh=0)
[3401000] READ observed: RADDR=128 DOUT=0x25a5
[3401000] PROT: GETCMD state cnt=2
[3403000] PROT: GETCMD state cnt=1
[3405000] PROT: GETCMD state cnt=0
[3405000] PROT: GETCMD addr=128 cmd=1 sz=0 rank_sel=0
[3419000] PROT: ISSUE_READ bank=0 row=0 col=32 cs=1 ras=1 cas=1 we=1
[3421000] MEM: READ decode rank=3 bank=0 row=0 col=65
[3421000] MEM: READ cmd received rank=3 bank=0 row=0 col=65
[3473000] MEM: READ beat=0 rank=3 idx=1 data=0x0000
[3475000] MEM: READ beat=1 rank=3 idx=2 data=0x0000
[3477000] MEM: READ beat=2 rank=3 idx=3 data=0x0000
[3479000] MEM: READ beat=3 rank=3 idx=4 data=0x0000
[3481000] MEM: READ beat=4 rank=3 idx=5 data=0x0000
[3483000] MEM: READ beat=5 rank=3 idx=6 data=0x0000
[3485000] MEM: READ beat=6 rank=3 idx=7 data=0x0000
[3487000] MEM: READ beat=7 rank=3 idx=8 data=0x0000
[3505000] CTRL: ENQUEUE CMD addr=512 cmd=10 sz=0
[3507000] CTRL: ENQUEUE CMD addr=512 cmd=10 sz=0
[3507000] SCW issued: addr=512 data=0xa5a7
[3509000] PROT: IDLE sees cmdFIFO non-empty (need_refresh=0)
[3511000] PROT: GETCMD state cnt=2
[3513000] PROT: GETCMD state cnt=1
[3515000] PROT: GETCMD state cnt=0
[3515000] PROT: GETCMD addr=512 cmd=10 sz=0 rank_sel=0
[3531000] DQS_MON: WRITE detected, starting DQS observation window.
[3531000] MEM: WRITE cmd received rank=3 bank=0 row=0 col=257
[3547000] MEM: WRITE burst committed base_idx=1 data=0x0000
[3597000] DQS_MON: window complete, edge_cnt=7.
[3929000] CTRL: ENQUEUE CMD addr=512 cmd=1 sz=0
[3931000] CTRL: ENQUEUE CMD addr=512 cmd=1 sz=0
[3931000] SCR issued: addr=512
[3933000] PROT: IDLE sees cmdFIFO non-empty (need_refresh=0)
[3935000] READ observed: RADDR=512 DOUT=0xa5a7
[3935000] PROT: GETCMD state cnt=2
[3937000] PROT: GETCMD state cnt=1
[3939000] PROT: GETCMD state cnt=0
[3939000] PROT: GETCMD addr=512 cmd=1 sz=0 rank_sel=0
[3953000] PROT: ISSUE_READ bank=0 row=0 col=128 cs=1 ras=1 cas=1 we=1
[3955000] MEM: READ decode rank=3 bank=0 row=0 col=257
[3955000] MEM: READ cmd received rank=3 bank=0 row=0 col=257
[4007000] MEM: READ beat=0 rank=3 idx=1 data=0x0000
[4009000] MEM: READ beat=1 rank=3 idx=2 data=0x0000
[4011000] MEM: READ beat=2 rank=3 idx=3 data=0x0000
[4013000] MEM: READ beat=3 rank=3 idx=4 data=0x0000
[4015000] MEM: READ beat=4 rank=3 idx=5 data=0x0000
[4017000] MEM: READ beat=5 rank=3 idx=6 data=0x0000
[4019000] MEM: READ beat=6 rank=3 idx=7 data=0x0000
[4021000] MEM: READ beat=7 rank=3 idx=8 data=0x0000
[4039000] CTRL: ENQUEUE CMD addr=32 cmd=100 sz=0
[4041000] CTRL: ENQUEUE CMD addr=32 cmd=100 sz=0
[4041000] BLW issued: base_addr=32 SZ=0 (nwords=8)
[4043000] PROT: IDLE sees cmdFIFO non-empty (need_refresh=0)
[4045000] PROT: GETCMD state cnt=2
[4047000] PROT: GETCMD state cnt=1
[4049000] PROT: GETCMD state cnt=0
[4049000] PROT: GETCMD addr=32 cmd=100 sz=0 rank_sel=0
[4079000] DQS_MON: WRITE detected, starting DQS observation window.
[4079000] MEM: WRITE cmd received rank=3 bank=0 row=0 col=17
[4095000] MEM: WRITE burst committed base_idx=17 data=0x0000
[4145000] DQS_MON: window complete, edge_cnt=7.
[5295000] CTRL: ENQUEUE CMD addr=32 cmd=11 sz=0
[5297000] CTRL: ENQUEUE CMD addr=32 cmd=11 sz=0
[5297000] BLR issued: base_addr=32 SZ=0 (expect 8 beats)
[5299000] PROT: IDLE sees cmdFIFO non-empty (need_refresh=0)
[5301000] READ observed: RADDR=32 DOUT=0x85a5
[5301000] PROT: GETCMD state cnt=2
[5301000] BLR beat 0 observed: RADDR=32 DOUT=0x85a5
[5303000] READ observed: RADDR=33 DOUT=0x84a5
[5303000] BLR beat 1 observed: RADDR=33 DOUT=0x84a5
[5303000] PROT: GETCMD state cnt=1
[5305000] READ observed: RADDR=34 DOUT=0x87a5
[5305000] PROT: GETCMD state cnt=0
[5305000] PROT: GETCMD addr=32 cmd=11 sz=0 rank_sel=0
[5305000] BLR beat 2 observed: RADDR=34 DOUT=0x87a5
[5307000] READ observed: RADDR=35 DOUT=0x86a5
[5307000] BLR beat 3 observed: RADDR=35 DOUT=0x86a5
[5309000] READ observed: RADDR=36 DOUT=0x81a5
[5309000] BLR beat 4 observed: RADDR=36 DOUT=0x81a5
[5311000] READ observed: RADDR=37 DOUT=0x80a5
[5311000] BLR beat 5 observed: RADDR=37 DOUT=0x80a5
[5313000] READ observed: RADDR=38 DOUT=0x83a5
[5313000] BLR beat 6 observed: RADDR=38 DOUT=0x83a5
[5315000] READ observed: RADDR=39 DOUT=0x82a5
[5315000] BLR beat 7 observed: RADDR=39 DOUT=0x82a5
[5315000] BLW/BLR sequence OK: base_addr=32 SZ=0 (nwords=8)
[5335000] MEM: READ decode rank=3 bank=0 row=0 col=17
[5335000] MEM: READ cmd received rank=3 bank=0 row=0 col=17
[5387000] MEM: READ beat=0 rank=3 idx=17 data=0x0000
[5389000] MEM: READ beat=1 rank=3 idx=18 data=0x0000
[5391000] MEM: READ beat=2 rank=3 idx=19 data=0x0000
[5393000] MEM: READ beat=3 rank=3 idx=20 data=0x0000
[5395000] MEM: READ beat=4 rank=3 idx=21 data=0x0000
[5397000] MEM: READ beat=5 rank=3 idx=22 data=0x0000
[5399000] MEM: READ beat=6 rank=3 idx=23 data=0x0000
[5401000] MEM: READ beat=7 rank=3 idx=24 data=0x0000
[5517000] CTRL: ENQUEUE CMD addr=256 cmd=100 sz=1
[5519000] CTRL: ENQUEUE CMD addr=256 cmd=100 sz=1
[5519000] BLW issued: base_addr=256 SZ=1 (nwords=16)
[5521000] PROT: IDLE sees cmdFIFO non-empty (need_refresh=0)
[5523000] PROT: GETCMD state cnt=2
[5525000] PROT: GETCMD state cnt=1
[5527000] PROT: GETCMD state cnt=0
[5527000] PROT: GETCMD addr=256 cmd=100 sz=1 rank_sel=0
[5557000] DQS_MON: WRITE detected, starting DQS observation window.
[5557000] MEM: WRITE cmd received rank=3 bank=0 row=0 col=128
[5573000] MEM: WRITE burst committed base_idx=0 data=0x0000
[5623000] DQS_MON: window complete, edge_cnt=7.
[5653000] DQS_MON: WRITE detected, starting DQS observation window.
[5653000] MEM: WRITE cmd received rank=3 bank=0 row=0 col=145
[5669000] MEM: WRITE burst committed base_idx=17 data=0x0000
[5719000] DQS_MON: window complete, edge_cnt=7.
[6805000] CTRL: ENQUEUE CMD addr=256 cmd=11 sz=1
[6807000] CTRL: ENQUEUE CMD addr=256 cmd=11 sz=1
[6807000] BLR issued: base_addr=256 SZ=1 (expect 16 beats)
[6809000] PROT: IDLE sees cmdFIFO non-empty (need_refresh=0)
[6811000] PROT: GETCMD state cnt=2
[6811000] READ observed: RADDR=256 DOUT=0xa5a4
[6811000] BLR beat 0 observed: RADDR=256 DOUT=0xa5a4
[6813000] READ observed: RADDR=257 DOUT=0xa4a4
[6813000] BLR beat 1 observed: RADDR=257 DOUT=0xa4a4
[6813000] PROT: GETCMD state cnt=1
[6815000] READ observed: RADDR=258 DOUT=0xa7a4
[6815000] PROT: GETCMD state cnt=0
[6815000] PROT: GETCMD addr=256 cmd=11 sz=1 rank_sel=0
[6815000] BLR beat 2 observed: RADDR=258 DOUT=0xa7a4
[6817000] READ observed: RADDR=259 DOUT=0xa6a4
[6817000] BLR beat 3 observed: RADDR=259 DOUT=0xa6a4
[6819000] READ observed: RADDR=260 DOUT=0xa1a4
[6819000] BLR beat 4 observed: RADDR=260 DOUT=0xa1a4
[6821000] READ observed: RADDR=261 DOUT=0xa0a4
[6821000] BLR beat 5 observed: RADDR=261 DOUT=0xa0a4
[6823000] READ observed: RADDR=262 DOUT=0xa3a4
[6823000] BLR beat 6 observed: RADDR=262 DOUT=0xa3a4
[6825000] READ observed: RADDR=263 DOUT=0xa2a4
[6825000] BLR beat 7 observed: RADDR=263 DOUT=0xa2a4
[6827000] READ observed: RADDR=264 DOUT=0xada4
[6827000] BLR beat 8 observed: RADDR=264 DOUT=0xada4
[6829000] READ observed: RADDR=265 DOUT=0xaca4
[6829000] BLR beat 9 observed: RADDR=265 DOUT=0xaca4
[6831000] READ observed: RADDR=266 DOUT=0xafa4
[6831000] BLR beat 10 observed: RADDR=266 DOUT=0xafa4
[6833000] READ observed: RADDR=267 DOUT=0xaea4
[6833000] BLR beat 11 observed: RADDR=267 DOUT=0xaea4
[6835000] READ observed: RADDR=268 DOUT=0xa9a4
[6835000] BLR beat 12 observed: RADDR=268 DOUT=0xa9a4
[6837000] READ observed: RADDR=269 DOUT=0xa8a4
[6837000] BLR beat 13 observed: RADDR=269 DOUT=0xa8a4
[6839000] READ observed: RADDR=270 DOUT=0xaba4
[6839000] BLR beat 14 observed: RADDR=270 DOUT=0xaba4
[6841000] READ observed: RADDR=271 DOUT=0xaaa4
[6841000] BLR beat 15 observed: RADDR=271 DOUT=0xaaa4
[6841000] BLW/BLR sequence OK: base_addr=256 SZ=1 (nwords=16)
[6845000] MEM: READ decode rank=3 bank=0 row=0 col=128
[6845000] MEM: READ cmd received rank=3 bank=0 row=0 col=128
[6897000] MEM: READ beat=0 rank=3 idx=0 data=0x0000
[6899000] MEM: READ beat=1 rank=3 idx=1 data=0x0000
[6901000] MEM: READ beat=2 rank=3 idx=2 data=0x0000
[6903000] MEM: READ beat=3 rank=3 idx=3 data=0x0000
[6905000] MEM: READ beat=4 rank=3 idx=4 data=0x0000
[6907000] MEM: READ beat=5 rank=3 idx=5 data=0x0000
[6909000] MEM: READ beat=6 rank=3 idx=6 data=0x0000
[6911000] MEM: READ beat=7 rank=3 idx=7 data=0x0000
[7043000] CTRL: ENQUEUE CMD addr=384 cmd=100 sz=10
[7045000] CTRL: ENQUEUE CMD addr=384 cmd=100 sz=10
[7045000] BLW issued: base_addr=384 SZ=2 (nwords=24)
[7047000] PROT: IDLE sees cmdFIFO non-empty (need_refresh=0)
[7049000] PROT: GETCMD state cnt=2
[7051000] PROT: GETCMD state cnt=1
[7053000] PROT: GETCMD state cnt=0
[7053000] PROT: GETCMD addr=384 cmd=100 sz=10 rank_sel=0
[7083000] DQS_MON: WRITE detected, starting DQS observation window.
[7083000] MEM: WRITE cmd received rank=3 bank=0 row=0 col=192
[7099000] MEM: WRITE burst committed base_idx=0 data=0x0000
[7149000] DQS_MON: window complete, edge_cnt=7.
[7195000] DQS_MON: WRITE detected, starting DQS observation window.
[7195000] MEM: WRITE cmd received rank=3 bank=0 row=0 col=208
[7211000] MEM: WRITE burst committed base_idx=16 data=0x0000
[7261000] DQS_MON: window complete, edge_cnt=7.
[7307000] DQS_MON: WRITE detected, starting DQS observation window.
[7307000] MEM: WRITE cmd received rank=3 bank=0 row=0 col=225
[7323000] MEM: WRITE burst committed base_idx=1 data=0x0000
[7373000] DQS_MON: window complete, edge_cnt=7.
[8169000] REF_MON: First AUTO REFRESH observed.
[8363000] CTRL: ENQUEUE CMD addr=384 cmd=11 sz=10
[8365000] CTRL: ENQUEUE CMD addr=384 cmd=11 sz=10
[8365000] BLR issued: base_addr=384 SZ=2 (expect 24 beats)
[8369000] PROT: IDLE sees cmdFIFO non-empty (need_refresh=0)
[8369000] READ observed: RADDR=384 DOUT=0x25a4
[8369000] BLR beat 0 observed: RADDR=384 DOUT=0x25a4
[8371000] READ observed: RADDR=385 DOUT=0x24a4
[8371000] BLR beat 1 observed: RADDR=385 DOUT=0x24a4
[8371000] PROT: GETCMD state cnt=2
[8373000] READ observed: RADDR=386 DOUT=0x27a4
[8373000] PROT: GETCMD state cnt=1
[8373000] BLR beat 2 observed: RADDR=386 DOUT=0x27a4
[8375000] READ observed: RADDR=387 DOUT=0x26a4
[8375000] BLR beat 3 observed: RADDR=387 DOUT=0x26a4
[8375000] PROT: GETCMD state cnt=0
[8375000] PROT: GETCMD addr=384 cmd=11 sz=10 rank_sel=0
[8377000] READ observed: RADDR=388 DOUT=0x21a4
[8377000] BLR beat 4 observed: RADDR=388 DOUT=0x21a4
[8379000] READ observed: RADDR=389 DOUT=0x20a4
[8379000] BLR beat 5 observed: RADDR=389 DOUT=0x20a4
[8381000] READ observed: RADDR=390 DOUT=0x23a4
[8381000] BLR beat 6 observed: RADDR=390 DOUT=0x23a4
[8383000] READ observed: RADDR=391 DOUT=0x22a4
[8383000] BLR beat 7 observed: RADDR=391 DOUT=0x22a4
[8385000] READ observed: RADDR=392 DOUT=0x2da4
[8385000] BLR beat 8 observed: RADDR=392 DOUT=0x2da4
[8387000] READ observed: RADDR=393 DOUT=0x2ca4
[8387000] BLR beat 9 observed: RADDR=393 DOUT=0x2ca4
[8389000] READ observed: RADDR=394 DOUT=0x2fa4
[8389000] BLR beat 10 observed: RADDR=394 DOUT=0x2fa4
[8391000] READ observed: RADDR=395 DOUT=0x2ea4
[8391000] BLR beat 11 observed: RADDR=395 DOUT=0x2ea4
[8393000] READ observed: RADDR=396 DOUT=0x29a4
[8393000] BLR beat 12 observed: RADDR=396 DOUT=0x29a4
[8395000] READ observed: RADDR=397 DOUT=0x28a4
[8395000] BLR beat 13 observed: RADDR=397 DOUT=0x28a4
[8397000] READ observed: RADDR=398 DOUT=0x2ba4
[8397000] BLR beat 14 observed: RADDR=398 DOUT=0x2ba4
[8399000] READ observed: RADDR=399 DOUT=0x2aa4
[8399000] BLR beat 15 observed: RADDR=399 DOUT=0x2aa4
[8401000] READ observed: RADDR=400 DOUT=0x35a4
[8401000] BLR beat 16 observed: RADDR=400 DOUT=0x35a4
[8403000] READ observed: RADDR=401 DOUT=0x34a4
[8403000] BLR beat 17 observed: RADDR=401 DOUT=0x34a4
[8405000] READ observed: RADDR=402 DOUT=0x37a4
[8405000] BLR beat 18 observed: RADDR=402 DOUT=0x37a4
[8405000] MEM: READ decode rank=3 bank=0 row=0 col=192
[8405000] MEM: READ cmd received rank=3 bank=0 row=0 col=192
[8407000] READ observed: RADDR=403 DOUT=0x36a4
[8407000] BLR beat 19 observed: RADDR=403 DOUT=0x36a4
[8409000] READ observed: RADDR=404 DOUT=0x31a4
[8409000] BLR beat 20 observed: RADDR=404 DOUT=0x31a4
[8411000] READ observed: RADDR=405 DOUT=0x30a4
[8411000] BLR beat 21 observed: RADDR=405 DOUT=0x30a4
[8413000] READ observed: RADDR=406 DOUT=0x33a4
[8413000] BLR beat 22 observed: RADDR=406 DOUT=0x33a4
[8415000] READ observed: RADDR=407 DOUT=0x32a4
[8415000] BLR beat 23 observed: RADDR=407 DOUT=0x32a4
[8415000] BLW/BLR sequence OK: base_addr=384 SZ=2 (nwords=24)
[8457000] MEM: READ beat=0 rank=3 idx=0 data=0x0000
[8459000] MEM: READ beat=1 rank=3 idx=1 data=0x0000
[8461000] MEM: READ beat=2 rank=3 idx=2 data=0x0000
[8463000] MEM: READ beat=3 rank=3 idx=3 data=0x0000
[8465000] MEM: READ beat=4 rank=3 idx=4 data=0x0000
[8467000] MEM: READ beat=5 rank=3 idx=5 data=0x0000
[8469000] MEM: READ beat=6 rank=3 idx=6 data=0x0000
[8471000] MEM: READ beat=7 rank=3 idx=7 data=0x0000
[8617000] CTRL: ENQUEUE CMD addr=512 cmd=100 sz=11
[8619000] CTRL: ENQUEUE CMD addr=512 cmd=100 sz=11
[8619000] BLW issued: base_addr=512 SZ=3 (nwords=32)
[8621000] PROT: IDLE sees cmdFIFO non-empty (need_refresh=0)
[8623000] PROT: GETCMD state cnt=2
[8625000] PROT: GETCMD state cnt=1
[8627000] PROT: GETCMD state cnt=0
[8627000] PROT: GETCMD addr=512 cmd=100 sz=11 rank_sel=0
[8657000] DQS_MON: WRITE detected, starting DQS observation window.
[8657000] MEM: WRITE cmd received rank=3 bank=0 row=0 col=256
[8673000] MEM: WRITE burst committed base_idx=0 data=0x0000
[8723000] DQS_MON: window complete, edge_cnt=7.
[8785000] DQS_MON: WRITE detected, starting DQS observation window.
[8785000] MEM: WRITE cmd received rank=3 bank=0 row=0 col=272
[8801000] MEM: WRITE burst committed base_idx=16 data=0x0000
[8851000] DQS_MON: window complete, edge_cnt=7.
[8913000] DQS_MON: WRITE detected, starting DQS observation window.
[8913000] MEM: WRITE cmd received rank=3 bank=0 row=0 col=288
[8929000] MEM: WRITE burst committed base_idx=0 data=0x0000
[8979000] DQS_MON: window complete, edge_cnt=7.
[9041000] DQS_MON: WRITE detected, starting DQS observation window.
[9041000] MEM: WRITE cmd received rank=3 bank=0 row=0 col=305
[9057000] MEM: WRITE burst committed base_idx=17 data=0x0000
[9107000] DQS_MON: window complete, edge_cnt=7.
[9969000] CTRL: ENQUEUE CMD addr=512 cmd=11 sz=11
[9971000] CTRL: ENQUEUE CMD addr=512 cmd=11 sz=11
[9971000] BLR issued: base_addr=512 SZ=3 (expect 32 beats)
[9973000] PROT: IDLE sees cmdFIFO non-empty (need_refresh=0)
[9975000] PROT: GETCMD state cnt=2
[9975000] READ observed: RADDR=512 DOUT=0xa5a7
[9975000] BLR beat 0 observed: RADDR=512 DOUT=0xa5a7
[9977000] READ observed: RADDR=513 DOUT=0xa4a7
[9977000] BLR beat 1 observed: RADDR=513 DOUT=0xa4a7
[9977000] PROT: GETCMD state cnt=1
[9979000] READ observed: RADDR=514 DOUT=0xa7a7
[9979000] PROT: GETCMD state cnt=0
[9979000] PROT: GETCMD addr=512 cmd=11 sz=11 rank_sel=0
[9979000] BLR beat 2 observed: RADDR=514 DOUT=0xa7a7
[9981000] READ observed: RADDR=515 DOUT=0xa6a7
[9981000] BLR beat 3 observed: RADDR=515 DOUT=0xa6a7
[9983000] READ observed: RADDR=516 DOUT=0xa1a7
[9983000] BLR beat 4 observed: RADDR=516 DOUT=0xa1a7
[9985000] READ observed: RADDR=517 DOUT=0xa0a7
[9985000] BLR beat 5 observed: RADDR=517 DOUT=0xa0a7
[9987000] READ observed: RADDR=518 DOUT=0xa3a7
[9987000] BLR beat 6 observed: RADDR=518 DOUT=0xa3a7
[9989000] READ observed: RADDR=519 DOUT=0xa2a7
[9989000] BLR beat 7 observed: RADDR=519 DOUT=0xa2a7
[9991000] READ observed: RADDR=520 DOUT=0xada7
[9991000] BLR beat 8 observed: RADDR=520 DOUT=0xada7
[9993000] READ observed: RADDR=521 DOUT=0xaca7
[9993000] BLR beat 9 observed: RADDR=521 DOUT=0xaca7
[9995000] READ observed: RADDR=522 DOUT=0xafa7
[9995000] BLR beat 10 observed: RADDR=522 DOUT=0xafa7
[9997000] READ observed: RADDR=523 DOUT=0xaea7
[9997000] BLR beat 11 observed: RADDR=523 DOUT=0xaea7
[9999000] READ observed: RADDR=524 DOUT=0xa9a7
[9999000] BLR beat 12 observed: RADDR=524 DOUT=0xa9a7
[10001000] READ observed: RADDR=525 DOUT=0xa8a7
[10001000] BLR beat 13 observed: RADDR=525 DOUT=0xa8a7
[10003000] READ observed: RADDR=526 DOUT=0xaba7
[10003000] BLR beat 14 observed: RADDR=526 DOUT=0xaba7
[10005000] READ observed: RADDR=527 DOUT=0xaaa7
[10005000] BLR beat 15 observed: RADDR=527 DOUT=0xaaa7
[10007000] READ observed: RADDR=528 DOUT=0xb5a7
[10007000] BLR beat 16 observed: RADDR=528 DOUT=0xb5a7
[10009000] READ observed: RADDR=529 DOUT=0xb4a7
[10009000] BLR beat 17 observed: RADDR=529 DOUT=0xb4a7
[10009000] MEM: READ decode rank=3 bank=0 row=0 col=256
[10009000] MEM: READ cmd received rank=3 bank=0 row=0 col=256
[10011000] READ observed: RADDR=530 DOUT=0xb7a7
[10011000] BLR beat 18 observed: RADDR=530 DOUT=0xb7a7
[10013000] READ observed: RADDR=531 DOUT=0xb6a7
[10013000] BLR beat 19 observed: RADDR=531 DOUT=0xb6a7
[10015000] READ observed: RADDR=532 DOUT=0xb1a7
[10015000] BLR beat 20 observed: RADDR=532 DOUT=0xb1a7
[10017000] READ observed: RADDR=533 DOUT=0xb0a7
[10017000] BLR beat 21 observed: RADDR=533 DOUT=0xb0a7
[10019000] READ observed: RADDR=534 DOUT=0xb3a7
[10019000] BLR beat 22 observed: RADDR=534 DOUT=0xb3a7
[10021000] READ observed: RADDR=535 DOUT=0xb2a7
[10021000] BLR beat 23 observed: RADDR=535 DOUT=0xb2a7
[10023000] READ observed: RADDR=536 DOUT=0xbda7
[10023000] BLR beat 24 observed: RADDR=536 DOUT=0xbda7
[10025000] READ observed: RADDR=537 DOUT=0xbca7
[10025000] BLR beat 25 observed: RADDR=537 DOUT=0xbca7
[10027000] READ observed: RADDR=538 DOUT=0xbfa7
[10027000] BLR beat 26 observed: RADDR=538 DOUT=0xbfa7
[10029000] READ observed: RADDR=539 DOUT=0xbea7
[10029000] BLR beat 27 observed: RADDR=539 DOUT=0xbea7
[10031000] READ observed: RADDR=540 DOUT=0xb9a7
[10031000] BLR beat 28 observed: RADDR=540 DOUT=0xb9a7
[10033000] READ observed: RADDR=541 DOUT=0xb8a7
[10033000] BLR beat 29 observed: RADDR=541 DOUT=0xb8a7
[10035000] READ observed: RADDR=542 DOUT=0xbba7
[10035000] BLR beat 30 observed: RADDR=542 DOUT=0xbba7
[10037000] READ observed: RADDR=543 DOUT=0xbaa7
[10037000] BLR beat 31 observed: RADDR=543 DOUT=0xbaa7
[10037000] BLW/BLR sequence OK: base_addr=512 SZ=3 (nwords=32)
[10061000] MEM: READ beat=0 rank=3 idx=0 data=0x0000
[10063000] MEM: READ beat=1 rank=3 idx=1 data=0x0000
[10065000] MEM: READ beat=2 rank=3 idx=2 data=0x0000
[10067000] MEM: READ beat=3 rank=3 idx=3 data=0x0000
[10069000] MEM: READ beat=4 rank=3 idx=4 data=0x0000
[10071000] MEM: READ beat=5 rank=3 idx=5 data=0x0000
[10073000] MEM: READ beat=6 rank=3 idx=6 data=0x0000
[10075000] MEM: READ beat=7 rank=3 idx=7 data=0x0000
[10237000] Starting FIFO stress / refresh-interleaving test...
[10239000] CTRL: ENQUEUE CMD addr=600 cmd=10 sz=0
[10241000] CTRL: ENQUEUE CMD addr=600 cmd=10 sz=0
[10241000] SCW issued: addr=600 data=0xfda7
[10243000] PROT: IDLE sees cmdFIFO non-empty (need_refresh=0)
[10245000] PROT: GETCMD state cnt=2
[10247000] PROT: GETCMD state cnt=1
[10249000] PROT: GETCMD state cnt=0
[10249000] PROT: GETCMD addr=600 cmd=10 sz=0 rank_sel=0
[10265000] DQS_MON: WRITE detected, starting DQS observation window.
[10265000] MEM: WRITE cmd received rank=3 bank=3 row=0 col=289
[10281000] MEM: WRITE burst committed base_idx=97 data=0x0000
[10331000] DQS_MON: window complete, edge_cnt=7.
[10663000] CTRL: ENQUEUE CMD addr=600 cmd=1 sz=0
[10665000] CTRL: ENQUEUE CMD addr=600 cmd=1 sz=0
[10665000] SCR issued: addr=600
[10667000] PROT: IDLE sees cmdFIFO non-empty (need_refresh=0)
[10669000] PROT: GETCMD state cnt=2
[10669000] READ observed: RADDR=600 DOUT=0xfda7
[10671000] PROT: GETCMD state cnt=1
[10673000] PROT: GETCMD state cnt=0
[10673000] PROT: GETCMD addr=600 cmd=1 sz=0 rank_sel=0
[10687000] PROT: ISSUE_READ bank=3 row=0 col=144 cs=1 ras=1 cas=1 we=1
[10689000] MEM: READ decode rank=3 bank=3 row=0 col=289
[10689000] MEM: READ cmd received rank=3 bank=3 row=0 col=289
[10741000] MEM: READ beat=0 rank=3 idx=97 data=0x0000
[10743000] MEM: READ beat=1 rank=3 idx=98 data=0x0000
[10745000] MEM: READ beat=2 rank=3 idx=99 data=0x0000
[10747000] MEM: READ beat=3 rank=3 idx=100 data=0x0000
[10749000] MEM: READ beat=4 rank=3 idx=101 data=0x0000
[10751000] MEM: READ beat=5 rank=3 idx=102 data=0x0000
[10753000] MEM: READ beat=6 rank=3 idx=103 data=0x0000
[10755000] MEM: READ beat=7 rank=3 idx=104 data=0x0000
[10773000] CTRL: ENQUEUE CMD addr=700 cmd=100 sz=1
[10775000] CTRL: ENQUEUE CMD addr=700 cmd=100 sz=1
[10775000] BLW issued: base_addr=700 SZ=1 (nwords=16)
[10777000] PROT: IDLE sees cmdFIFO non-empty (need_refresh=0)
